<svg width="150" height="150" viewBox="0 0 150 150" fill="none" xmlns="http://www.w3.org/2000/svg">
<g clip-path="url(#clip0)">
<path d="M150.588 136.028C150.588 144.067 144.074 150.588 136.028 150.588H14.5595C6.52195 150.588 6.10352e-05 144.066 6.10352e-05 136.028V14.5594C6.10352e-05 6.5203 6.52195 0 14.5595 0H136.028C144.074 0 150.588 6.5203 150.588 14.5594V136.028Z" fill="#F6C915"/>
<path d="M61.3688 105.497C56.5188 105.497 52.711 104.864 49.9454 103.602C47.1798 102.337 45.197 100.614 44.0032 98.425C42.8063 96.2406 42.2267 93.7375 42.261 90.8969C42.2938 88.0625 42.686 85.0406 43.4392 81.8297L56.4501 27.4281L72.3314 24.9703L58.0907 83.9828C57.8173 85.2109 57.6642 86.3391 57.6298 87.3625C57.5939 88.386 57.7829 89.2922 58.1923 90.0766C58.6017 90.8641 59.3017 91.4953 60.2923 91.9719C61.2813 92.4516 62.6657 92.7594 64.4423 92.8953L61.3688 105.489" fill="white"/>
<path d="M118.728 71.5906C118.728 76.575 117.908 81.1344 116.269 85.2672C114.63 89.4016 112.358 92.9688 109.456 95.9734C106.553 98.9813 103.07 101.319 99.0064 102.991C94.9423 104.663 90.5189 105.502 85.7407 105.502C83.4173 105.502 81.0954 105.295 78.7736 104.884L74.1626 123.43H59.0001L76.0064 52.5391C78.7376 51.7203 81.8626 50.9859 85.3798 50.3359C88.8986 49.6875 92.7064 49.3641 96.8048 49.3641C100.63 49.3641 103.927 49.9438 106.691 51.1047C109.458 52.2656 111.728 53.8547 113.505 55.8688C115.28 57.8844 116.594 60.2406 117.447 62.9375C118.3 65.6344 118.728 68.5219 118.728 71.5969V71.5906ZM81.5376 92.6C82.6986 92.8734 84.1329 93.0094 85.8407 93.0094C88.5032 93.0094 90.9282 92.5156 93.1142 91.5235C95.2985 90.5344 97.1611 89.1516 98.6986 87.375C100.233 85.6 101.428 83.4672 102.283 80.9719C103.136 78.4797 103.563 75.7313 103.563 72.725C103.563 69.7891 102.913 67.2953 101.617 65.2453C100.319 63.1969 98.0657 62.1719 94.8564 62.1719C92.6689 62.1719 90.6204 62.3766 88.7079 62.7875L81.5376 92.6Z" fill="white"/>
</g>
<defs>
<clipPath id="clip0">
<rect width="150" height="150" fill="white"/>
</clipPath>
</defs>
</svg>
