{
  "metadata": {
    "generated_at": "2019-02-20T17:37:26.604Z",
    "sha": "5cc9b58ec3774262408a82f3b469e6a67833a5d9"
  },
  "services": [
    {
      "name": "activecollab",
      "events": [
        "push"
      ],
      "supported_events": [
        "push"
      ],
      "title": "ActiveCollab",
      "schema": [
        [
          "string",
          "url"
        ],
        [
          "string",
          "project_id"
        ],
        [
          "string",
          "milestone_id"
        ],
        [
          "string",
          "category_id"
        ],
        [
          "password",
          "token"
        ]
      ]
    },
    {
      "name": "acunote",
      "events": [
        "push"
      ],
      "supported_events": [
        "push"
      ],
      "title": "Acunote",
      "schema": [
        [
          "password",
          "token"
        ]
      ]
    },
    {
      "name": "amazonsns",
      "events": [
        "push"
      ],
      "supported_events": [
        "commit_comment",
        "create",
        "delete",
        "deployment",
        "deployment_status",
        "download",
        "follow",
        "fork",
        "fork_apply",
        "gist",
        "gollum",
        "issue_comment",
        "issues",
        "member",
        "public",
        "pull_request",
        "pull_request_review_comment",
        "push",
        "release",
        "status",
        "team_add",
        "watch"
      ],
      "title": "Amazon SNS",
      "schema": [
        [
          "string",
          "aws_key"
        ],
        [
          "string",
          "sns_topic"
        ],
        [
          "string",
          "sns_region"
        ],
        [
          "password",
          "aws_secret"
        ]
      ]
    },
    {
      "name": "apiary",
      "events": [
        "push"
      ],
      "supported_events": [
        "commit_comment",
        "create",
        "delete",
        "deployment",
        "deployment_status",
        "download",
        "follow",
        "fork",
        "fork_apply",
        "gist",
        "gollum",
        "issue_comment",
        "issues",
        "member",
        "public",
        "pull_request",
        "pull_request_review_comment",
        "push",
        "release",
        "status",
        "team_add",
        "watch"
      ],
      "title": "Apiary",
      "schema": [
        [
          "string",
          "branch"
        ],
        [
          "string",
          "domain"
        ]
      ]
    },
    {
      "name": "appharbor",
      "events": [
        "push"
      ],
      "supported_events": [
        "push"
      ],
      "title": "AppHarbor",
      "schema": [
        [
          "string",
          "application_slug"
        ],
        [
          "password",
          "token"
        ]
      ]
    },
    {
      "name": "apropos",
      "events": [
        "commit_comment",
        "issues",
        "issue_comment",
        "pull_request",
        "push"
      ],
      "supported_events": [
        "commit_comment",
        "create",
        "delete",
        "deployment",
        "deployment_status",
        "download",
        "follow",
        "fork",
        "fork_apply",
        "gist",
        "gollum",
        "issue_comment",
        "issues",
        "member",
        "public",
        "pull_request",
        "pull_request_review_comment",
        "push",
        "release",
        "status",
        "team_add",
        "watch"
      ],
      "title": "Apropos",
      "schema": [
        [
          "string",
          "project_id"
        ]
      ]
    },
    {
      "name": "asana",
      "events": [
        "push"
      ],
      "supported_events": [
        "push"
      ],
      "title": "Asana",
      "schema": [
        [
          "password",
          "auth_token"
        ],
        [
          "string",
          "restrict_to_branch"
        ],
        [
          "boolean",
          "restrict_to_last_commit"
        ]
      ]
    },
    {
      "name": "autodeploy",
      "events": [
        "push",
        "status"
      ],
      "supported_events": [
        "commit_comment",
        "create",
        "delete",
        "deployment",
        "deployment_status",
        "download",
        "follow",
        "fork",
        "fork_apply",
        "gist",
        "gollum",
        "issue_comment",
        "issues",
        "member",
        "public",
        "pull_request",
        "pull_request_review_comment",
        "push",
        "release",
        "status",
        "team_add",
        "watch"
      ],
      "title": "GitHub Auto-Deployment",
      "schema": [
        [
          "password",
          "github_token"
        ],
        [
          "string",
          "environments"
        ],
        [
          "boolean",
          "deploy_on_status"
        ],
        [
          "string",
          "github_api_url"
        ]
      ]
    },
    {
      "name": "awscodedeploy",
      "events": [
        "deployment"
      ],
      "supported_events": [
        "commit_comment",
        "create",
        "delete",
        "deployment",
        "deployment_status",
        "download",
        "follow",
        "fork",
        "fork_apply",
        "gist",
        "gollum",
        "issue_comment",
        "issues",
        "member",
        "public",
        "pull_request",
        "pull_request_review_comment",
        "push",
        "release",
        "status",
        "team_add",
        "watch"
      ],
      "title": "AWS CodeDeploy",
      "schema": [
        [
          "string",
          "application_name"
        ],
        [
          "string",
          "deployment_group"
        ],
        [
          "string",
          "aws_access_key_id"
        ],
        [
          "string",
          "aws_region"
        ],
        [
          "string",
          "github_api_url"
        ],
        [
          "password",
          "aws_secret_access_key"
        ],
        [
          "password",
          "github_token"
        ]
      ]
    },
    {
      "name": "awsopsworks",
      "events": [
        "push",
        "deployment"
      ],
      "supported_events": [
        "commit_comment",
        "create",
        "delete",
        "deployment",
        "deployment_status",
        "download",
        "follow",
        "fork",
        "fork_apply",
        "gist",
        "gollum",
        "issue_comment",
        "issues",
        "member",
        "public",
        "pull_request",
        "pull_request_review_comment",
        "push",
        "release",
        "status",
        "team_add",
        "watch"
      ],
      "title": "AWS OpsWorks",
      "schema": [
        [
          "string",
          "app_id"
        ],
        [
          "string",
          "stack_id"
        ],
        [
          "string",
          "branch_name"
        ],
        [
          "string",
          "endpoint_region"
        ],
        [
          "string",
          "github_api_url"
        ],
        [
          "string",
          "aws_access_key_id"
        ],
        [
          "password",
          "aws_secret_access_key"
        ],
        [
          "password",
          "github_token"
        ]
      ]
    },
    {
      "name": "backlog",
      "events": [
        "push"
      ],
      "supported_events": [
        "push"
      ],
      "title": "Backlog",
      "schema": [
        [
          "string",
          "api_url"
        ],
        [
          "string",
          "user_id"
        ],
        [
          "password",
          "password"
        ]
      ]
    },
    {
      "name": "bamboo",
      "events": [
        "push"
      ],
      "supported_events": [
        "push"
      ],
      "title": "Bamboo",
      "schema": [
        [
          "string",
          "base_url"
        ],
        [
          "string",
          "build_key"
        ],
        [
          "string",
          "username"
        ],
        [
          "password",
          "password"
        ]
      ]
    },
    {
      "name": "basecamp",
      "events": [
        "push",
        "pull_request",
        "issues"
      ],
      "supported_events": [
        "issues",
        "pull_request",
        "push"
      ],
      "title": "Basecamp",
      "schema": [
        [
          "string",
          "project_url"
        ],
        [
          "string",
          "email_address"
        ],
        [
          "password",
          "password"
        ]
      ]
    },
    {
      "name": "bugherd",
      "events": [
        "issues",
        "issue_comment",
        "push"
      ],
      "supported_events": [
        "issue_comment",
        "issues",
        "push"
      ],
      "title": "BugHerd",
      "schema": [
        [
          "string",
          "project_key"
        ]
      ]
    },
    {
      "name": "bugzilla",
      "events": [
        "push"
      ],
      "supported_events": [
        "push"
      ],
      "title": "Bugzilla",
      "schema": [
        [
          "string",
          "server_url"
        ],
        [
          "string",
          "username"
        ],
        [
          "string",
          "integration_branch"
        ],
        [
          "password",
          "password"
        ],
        [
          "boolean",
          "central_repository"
        ]
      ]
    },
    {
      "name": "campfire",
      "events": [
        "push",
        "pull_request",
        "issues"
      ],
      "supported_events": [
        "gollum",
        "issues",
        "public",
        "pull_request",
        "push"
      ],
      "title": "Campfire",
      "schema": [
        [
          "string",
          "subdomain"
        ],
        [
          "string",
          "room"
        ],
        [
          "string",
          "sound"
        ],
        [
          "password",
          "token"
        ],
        [
          "boolean",
          "master_only"
        ],
        [
          "boolean",
          "play_sound"
        ],
        [
          "boolean",
          "long_url"
        ]
      ]
    },
    {
      "name": "cia",
      "events": [
        "push"
      ],
      "supported_events": [
        "push"
      ],
      "title": "CIA",
      "schema": [
        [
          "string",
          "address"
        ],
        [
          "string",
          "project"
        ],
        [
          "string",
          "branch"
        ],
        [
          "string",
          "module"
        ],
        [
          "boolean",
          "long_url"
        ],
        [
          "boolean",
          "full_commits"
        ]
      ]
    },
    {
      "name": "clevercloud",
      "events": [
        "push"
      ],
      "supported_events": [
        "push"
      ],
      "title": "Clever Cloud",
      "schema": [
        [
          "password",
          "secret"
        ]
      ]
    },
    {
      "name": "codeclimate",
      "events": [
        "push",
        "pull_request"
      ],
      "supported_events": [
        "commit_comment",
        "create",
        "delete",
        "deployment",
        "deployment_status",
        "download",
        "follow",
        "fork",
        "fork_apply",
        "gist",
        "gollum",
        "issue_comment",
        "issues",
        "member",
        "public",
        "pull_request",
        "pull_request_review_comment",
        "push",
        "release",
        "status",
        "team_add",
        "watch"
      ],
      "title": "CodeClimate",
      "schema": [
        [
          "password",
          "token"
        ]
      ]
    },
    {
      "name": "codereviewhub",
      "events": [
        "pull_request",
        "issue_comment",
        "commit_comment",
        "pull_request_review_comment"
      ],
      "supported_events": [
        "commit_comment",
        "create",
        "delete",
        "deployment",
        "deployment_status",
        "download",
        "follow",
        "fork",
        "fork_apply",
        "gist",
        "gollum",
        "issue_comment",
        "issues",
        "member",
        "public",
        "pull_request",
        "pull_request_review_comment",
        "push",
        "release",
        "status",
        "team_add",
        "watch"
      ],
      "title": "CodeReviewHub",
      "schema": [

      ]
    },
    {
      "name": "codeship",
      "events": [
        "push",
        "pull_request"
      ],
      "supported_events": [
        "commit_comment",
        "create",
        "delete",
        "deployment",
        "deployment_status",
        "download",
        "follow",
        "fork",
        "fork_apply",
        "gist",
        "gollum",
        "issue_comment",
        "issues",
        "member",
        "public",
        "pull_request",
        "pull_request_review_comment",
        "push",
        "release",
        "status",
        "team_add",
        "watch"
      ],
      "title": "Codeship",
      "schema": [
        [
          "string",
          "project_uuid"
        ]
      ]
    },
    {
      "name": "commandoio",
      "events": [
        "push"
      ],
      "supported_events": [
        "commit_comment",
        "create",
        "delete",
        "deployment",
        "deployment_status",
        "download",
        "follow",
        "fork",
        "fork_apply",
        "gist",
        "gollum",
        "issue_comment",
        "issues",
        "member",
        "public",
        "pull_request",
        "pull_request_review_comment",
        "push",
        "release",
        "status",
        "team_add",
        "watch"
      ],
      "title": "Commando.io",
      "schema": [
        [
          "password",
          "api_token_secret_key"
        ],
        [
          "string",
          "account_alias"
        ],
        [
          "string",
          "recipe"
        ],
        [
          "string",
          "server"
        ],
        [
          "string",
          "groups"
        ],
        [
          "string",
          "notes"
        ],
        [
          "boolean",
          "halt_on_stderr"
        ]
      ]
    },
    {
      "name": "conductor",
      "events": [
        "push"
      ],
      "supported_events": [
        "push"
      ],
      "title": "Conductor",
      "schema": [
        [
          "string",
          "api_key"
        ]
      ]
    },
    {
      "name": "copperegg",
      "events": [
        "push"
      ],
      "supported_events": [
        "push"
      ],
      "title": "CopperEgg",
      "schema": [
        [
          "string",
          "url"
        ],
        [
          "string",
          "tag"
        ],
        [
          "boolean",
          "master_only"
        ],
        [
          "string",
          "api_key"
        ]
      ]
    },
    {
      "name": "crocagile",
      "events": [
        "push"
      ],
      "supported_events": [
        "commit_comment",
        "create",
        "delete",
        "deployment",
        "deployment_status",
        "download",
        "follow",
        "fork",
        "fork_apply",
        "gist",
        "gollum",
        "issue_comment",
        "issues",
        "member",
        "public",
        "pull_request",
        "pull_request_review_comment",
        "push",
        "release",
        "status",
        "team_add",
        "watch"
      ],
      "title": "Crocagile",
      "schema": [
        [
          "string",
          "project_key"
        ]
      ]
    },
    {
      "name": "deployervc",
      "events": [
        "push"
      ],
      "supported_events": [
        "commit_comment",
        "create",
        "delete",
        "deployment",
        "deployment_status",
        "download",
        "follow",
        "fork",
        "fork_apply",
        "gist",
        "gollum",
        "issue_comment",
        "issues",
        "member",
        "public",
        "pull_request",
        "pull_request_review_comment",
        "push",
        "release",
        "status",
        "team_add",
        "watch"
      ],
      "title": "Deployervc",
      "schema": [
        [
          "string",
          "deployment_address"
        ],
        [
          "password",
          "api_token"
        ]
      ]
    },
    {
      "name": "deployhq",
      "events": [
        "push"
      ],
      "supported_events": [
        "push"
      ],
      "title": "DeployHq",
      "schema": [
        [
          "string",
          "deploy_hook_url"
        ],
        [
          "boolean",
          "email_pusher"
        ]
      ]
    },
    {
      "name": "divecloud",
      "events": [
        "deployment_status"
      ],
      "supported_events": [
        "commit_comment",
        "create",
        "delete",
        "deployment",
        "deployment_status",
        "download",
        "follow",
        "fork",
        "fork_apply",
        "gist",
        "gollum",
        "issue_comment",
        "issues",
        "member",
        "public",
        "pull_request",
        "pull_request_review_comment",
        "push",
        "release",
        "status",
        "team_add",
        "watch"
      ],
      "title": "DiveCloud - Application Performance Testing",
      "schema": [
        [
          "string",
          "plan_id"
        ],
        [
          "password",
          "api_key"
        ],
        [
          "password",
          "creds_pass"
        ],
        [
          "boolean",
          "random_timing"
        ]
      ]
    },
    {
      "name": "djangopackages",
      "events": [
        "push"
      ],
      "supported_events": [
        "commit_comment",
        "create",
        "delete",
        "deployment",
        "deployment_status",
        "download",
        "follow",
        "fork",
        "fork_apply",
        "gist",
        "gollum",
        "issue_comment",
        "issues",
        "member",
        "public",
        "pull_request",
        "pull_request_review_comment",
        "push",
        "release",
        "status",
        "team_add",
        "watch"
      ],
      "title": "DjangoPackages",
      "schema": [

      ]
    },
    {
      "name": "docker",
      "events": [
        "push"
      ],
      "supported_events": [
        "commit_comment",
        "create",
        "delete",
        "deployment",
        "deployment_status",
        "download",
        "follow",
        "fork",
        "fork_apply",
        "gist",
        "gollum",
        "issue_comment",
        "issues",
        "member",
        "public",
        "pull_request",
        "pull_request_review_comment",
        "push",
        "release",
        "status",
        "team_add",
        "watch"
      ],
      "title": "Docker",
      "schema": [

      ]
    },
    {
      "name": "firebase",
      "events": [
        "push"
      ],
      "supported_events": [
        "push"
      ],
      "title": "Firebase",
      "schema": [
        [
          "string",
          "firebase"
        ],
        [
          "string",
          "secret"
        ]
      ]
    },
    {
      "name": "fisheye",
      "events": [
        "push"
      ],
      "supported_events": [
        "push"
      ],
      "title": "FishEye",
      "schema": [
        [
          "string",
          "url_base"
        ],
        [
          "string",
          "repository_name"
        ],
        [
          "password",
          "token"
        ]
      ]
    },
    {
      "name": "flowdock",
      "events": [
        "commit_comment",
        "gollum",
        "issues",
        "issue_comment",
        "pull_request",
        "push",
        "pull_request_review_comment"
      ],
      "supported_events": [
        "commit_comment",
        "create",
        "delete",
        "deployment",
        "deployment_status",
        "download",
        "follow",
        "fork",
        "fork_apply",
        "gist",
        "gollum",
        "issue_comment",
        "issues",
        "member",
        "public",
        "pull_request",
        "pull_request_review_comment",
        "push",
        "release",
        "status",
        "team_add",
        "watch"
      ],
      "title": "Flowdock",
      "schema": [
        [
          "password",
          "token"
        ]
      ]
    },
    {
      "name": "fogbugz",
      "events": [
        "push"
      ],
      "supported_events": [
        "push"
      ],
      "title": "FogBugz",
      "schema": [
        [
          "string",
          "cvssubmit_url"
        ],
        [
          "string",
          "fb_repoid"
        ],
        [
          "string",
          "fb_version"
        ]
      ]
    },
    {
      "name": "freckle",
      "events": [
        "push"
      ],
      "supported_events": [
        "commit_comment",
        "create",
        "delete",
        "deployment",
        "deployment_status",
        "download",
        "follow",
        "fork",
        "fork_apply",
        "gist",
        "gollum",
        "issue_comment",
        "issues",
        "member",
        "public",
        "pull_request",
        "pull_request_review_comment",
        "push",
        "release",
        "status",
        "team_add",
        "watch"
      ],
      "title": "Freckle",
      "schema": [
        [
          "string",
          "subdomain"
        ],
        [
          "string",
          "project"
        ],
        [
          "password",
          "token"
        ]
      ]
    },
    {
      "name": "gemini",
      "events": [
        "push"
      ],
      "supported_events": [
        "push"
      ],
      "title": "Gemini",
      "schema": [
        [
          "string",
          "server_url"
        ],
        [
          "string",
          "api_key"
        ]
      ]
    },
    {
      "name": "gemnasium",
      "events": [
        "push"
      ],
      "supported_events": [
        "push"
      ],
      "title": "Gemnasium",
      "schema": [
        [
          "string",
          "user"
        ],
        [
          "password",
          "token"
        ]
      ]
    },
    {
      "name": "getlocalization",
      "events": [
        "push"
      ],
      "supported_events": [
        "push"
      ],
      "title": "GetLocalization",
      "schema": [
        [
          "string",
          "project_name"
        ],
        [
          "password",
          "project_token"
        ]
      ]
    },
    {
      "name": "gitter",
      "events": [
        "commit_comment",
        "create",
        "delete",
        "deployment",
        "deployment_status",
        "download",
        "follow",
        "fork",
        "fork_apply",
        "gist",
        "gollum",
        "issue_comment",
        "issues",
        "member",
        "public",
        "pull_request",
        "pull_request_review_comment",
        "push",
        "release",
        "status",
        "team_add",
        "watch"
      ],
      "supported_events": [
        "commit_comment",
        "create",
        "delete",
        "deployment",
        "deployment_status",
        "download",
        "follow",
        "fork",
        "fork_apply",
        "gist",
        "gollum",
        "issue_comment",
        "issues",
        "member",
        "public",
        "pull_request",
        "pull_request_review_comment",
        "push",
        "release",
        "status",
        "team_add",
        "watch"
      ],
      "title": "Gitter",
      "schema": [
        [
          "password",
          "token"
        ],
        [
          "boolean",
          "mute_fork"
        ],
        [
          "boolean",
          "mute_watch"
        ],
        [
          "boolean",
          "mute_comments"
        ],
        [
          "boolean",
          "mute_wiki"
        ]
      ]
    },
    {
      "name": "gocd",
      "events": [
        "push"
      ],
      "supported_events": [
        "push"
      ],
      "title": "GoCD",
      "schema": [
        [
          "string",
          "base_url"
        ],
        [
          "string",
          "repository_url"
        ],
        [
          "string",
          "username"
        ],
        [
          "password",
          "password"
        ],
        [
          "boolean",
          "verify_ssl"
        ]
      ]
    },
    {
      "name": "grove",
      "events": [
        "commit_comment",
        "gollum",
        "issues",
        "issue_comment",
        "pull_request",
        "push"
      ],
      "supported_events": [
        "push"
      ],
      "title": "Grove",
      "schema": [
        [
          "password",
          "channel_token"
        ]
      ]
    },
    {
      "name": "habitualist",
      "events": [
        "push"
      ],
      "supported_events": [
        "push"
      ],
      "title": "Habitualist",
      "schema": [

      ]
    },
    {
      "name": "harvest",
      "events": [
        "push"
      ],
      "supported_events": [
        "push"
      ],
      "title": "Harvest",
      "schema": [
        [
          "string",
          "subdomain"
        ],
        [
          "string",
          "username"
        ],
        [
          "password",
          "password"
        ],
        [
          "boolean",
          "ssl"
        ]
      ]
    },
    {
      "name": "herokubeta",
      "events": [
        "deployment"
      ],
      "supported_events": [
        "commit_comment",
        "create",
        "delete",
        "deployment",
        "deployment_status",
        "download",
        "follow",
        "fork",
        "fork_apply",
        "gist",
        "gollum",
        "issue_comment",
        "issues",
        "member",
        "public",
        "pull_request",
        "pull_request_review_comment",
        "push",
        "release",
        "status",
        "team_add",
        "watch"
      ],
      "title": "HerokuBeta",
      "schema": [
        [
          "string",
          "name"
        ],
        [
          "string",
          "github_api_url"
        ],
        [
          "password",
          "heroku_token"
        ],
        [
          "password",
          "github_token"
        ]
      ]
    },
    {
      "name": "hipchat",
      "events": [
        "commit_comment",
        "download",
        "fork",
        "fork_apply",
        "gollum",
        "issues",
        "issue_comment",
        "member",
        "public",
        "pull_request",
        "pull_request_review_comment",
        "push",
        "watch"
      ],
      "supported_events": [
        "commit_comment",
        "create",
        "delete",
        "deployment",
        "deployment_status",
        "download",
        "follow",
        "fork",
        "fork_apply",
        "gist",
        "gollum",
        "issue_comment",
        "issues",
        "member",
        "public",
        "pull_request",
        "pull_request_review_comment",
        "push",
        "release",
        "status",
        "team_add",
        "watch"
      ],
      "title": "HipChat",
      "schema": [
        [
          "password",
          "auth_token"
        ],
        [
          "string",
          "room"
        ],
        [
          "string",
          "restrict_to_branch"
        ],
        [
          "string",
          "color"
        ],
        [
          "string",
          "server"
        ],
        [
          "boolean",
          "notify"
        ],
        [
          "boolean",
          "quiet_fork"
        ],
        [
          "boolean",
          "quiet_watch"
        ],
        [
          "boolean",
          "quiet_comments"
        ],
        [
          "boolean",
          "quiet_labels"
        ],
        [
          "boolean",
          "quiet_assigning"
        ],
        [
          "boolean",
          "quiet_wiki"
        ]
      ]
    },
    {
      "name": "hostedgraphite",
      "events": [
        "push"
      ],
      "supported_events": [
        "push"
      ],
      "title": "Hostedgraphite",
      "schema": [
        [
          "string",
          "api_key"
        ]
      ]
    },
    {
      "name": "httppost",
      "events": [
        "push"
      ],
      "supported_events": [
        "commit_comment",
        "create",
        "delete",
        "deployment",
        "deployment_status",
        "download",
        "follow",
        "fork",
        "fork_apply",
        "gist",
        "gollum",
        "issue_comment",
        "issues",
        "member",
        "public",
        "pull_request",
        "pull_request_review_comment",
        "push",
        "release",
        "status",
        "team_add",
        "watch"
      ],
      "title": "HttpPost",
      "schema": [

      ]
    },
    {
      "name": "huboard",
      "events": [
        "issue_comment",
        "issues"
      ],
      "supported_events": [
        "commit_comment",
        "create",
        "delete",
        "deployment",
        "deployment_status",
        "download",
        "follow",
        "fork",
        "fork_apply",
        "gist",
        "gollum",
        "issue_comment",
        "issues",
        "member",
        "public",
        "pull_request",
        "pull_request_review_comment",
        "push",
        "release",
        "status",
        "team_add",
        "watch"
      ],
      "title": "HuBoard",
      "schema": [

      ]
    },
    {
      "name": "humbug",
      "events": [
        "commit_comment",
        "create",
        "delete",
        "download",
        "follow",
        "fork",
        "fork_apply",
        "gist",
        "gollum",
        "issue_comment",
        "issues",
        "member",
        "public",
        "pull_request",
        "push",
        "team_add",
        "watch",
        "pull_request_review_comment",
        "status"
      ],
      "supported_events": [
        "commit_comment",
        "create",
        "delete",
        "deployment",
        "deployment_status",
        "download",
        "follow",
        "fork",
        "fork_apply",
        "gist",
        "gollum",
        "issue_comment",
        "issues",
        "member",
        "public",
        "pull_request",
        "pull_request_review_comment",
        "push",
        "release",
        "status",
        "team_add",
        "watch"
      ],
      "title": "Zulip",
      "schema": [
        [
          "string",
          "email"
        ],
        [
          "string",
          "api_key"
        ],
        [
          "string",
          "stream"
        ],
        [
          "string",
          "commit_stream"
        ],
        [
          "string",
          "issue_stream"
        ],
        [
          "string",
          "branches"
        ],
        [
          "string",
          "alternative_endpoint"
        ],
        [
          "boolean",
          "exclude_pull_requests"
        ],
        [
          "boolean",
          "exclude_issues"
        ],
        [
          "boolean",
          "exclude_commits"
        ]
      ]
    },
    {
      "name": "ibmdevopsservices",
      "events": [
        "push"
      ],
      "supported_events": [
        "commit_comment",
        "create",
        "delete",
        "deployment",
        "deployment_status",
        "download",
        "follow",
        "fork",
        "fork_apply",
        "gist",
        "gollum",
        "issue_comment",
        "issues",
        "member",
        "public",
        "pull_request",
        "pull_request_review_comment",
        "push",
        "release",
        "status",
        "team_add",
        "watch"
      ],
      "title": "IBM Bluemix DevOps Services",
      "schema": [
        [
          "string",
          "ibm_id"
        ],
        [
          "password",
          "ibm_password"
        ],
        [
          "string",
          "override_server_url"
        ]
      ]
    },
    {
      "name": "icescrum",
      "events": [
        "push"
      ],
      "supported_events": [
        "push"
      ],
      "title": "IceScrum",
      "schema": [
        [
          "string",
          "base_url"
        ],
        [
          "string",
          "project_key"
        ],
        [
          "string",
          "username"
        ],
        [
          "password",
          "password"
        ]
      ]
    },
    {
      "name": "irc",
      "events": [
        "push",
        "pull_request"
      ],
      "supported_events": [
        "commit_comment",
        "gollum",
        "issue_comment",
        "issues",
        "pull_request",
        "pull_request_review_comment",
        "push"
      ],
      "title": "IRC",
      "schema": [
        [
          "string",
          "server"
        ],
        [
          "string",
          "port"
        ],
        [
          "string",
          "room"
        ],
        [
          "string",
          "nick"
        ],
        [
          "string",
          "branches"
        ],
        [
          "password",
          "password"
        ],
        [
          "password",
          "nickserv_password"
        ],
        [
          "boolean",
          "ssl"
        ],
        [
          "boolean",
          "message_without_join"
        ],
        [
          "boolean",
          "no_colors"
        ],
        [
          "boolean",
          "long_url"
        ],
        [
          "boolean",
          "notice"
        ]
      ]
    },
    {
      "name": "irker",
      "events": [
        "push"
      ],
      "supported_events": [
        "push"
      ],
      "title": "Irker",
      "schema": [
        [
          "string",
          "address"
        ],
        [
          "string",
          "project"
        ],
        [
          "string",
          "branch"
        ],
        [
          "string",
          "module"
        ],
        [
          "string",
          "channels"
        ],
        [
          "boolean",
          "long_url"
        ],
        [
          "boolean",
          "color"
        ],
        [
          "boolean",
          "full_commits"
        ]
      ]
    },
    {
      "name": "ironmq",
      "events": [
        "commit_comment",
        "download",
        "fork",
        "fork_apply",
        "gollum",
        "issues",
        "issue_comment",
        "member",
        "public",
        "pull_request",
        "push",
        "watch"
      ],
      "supported_events": [
        "commit_comment",
        "create",
        "delete",
        "deployment",
        "deployment_status",
        "download",
        "follow",
        "fork",
        "fork_apply",
        "gist",
        "gollum",
        "issue_comment",
        "issues",
        "member",
        "public",
        "pull_request",
        "pull_request_review_comment",
        "push",
        "release",
        "status",
        "team_add",
        "watch"
      ],
      "title": "IronMQ",
      "schema": [
        [
          "password",
          "token"
        ],
        [
          "string",
          "project_id"
        ],
        [
          "string",
          "queue_name"
        ]
      ]
    },
    {
      "name": "ironworker",
      "events": [
        "commit_comment",
        "download",
        "fork",
        "fork_apply",
        "gollum",
        "issues",
        "issue_comment",
        "member",
        "public",
        "pull_request",
        "push",
        "watch"
      ],
      "supported_events": [
        "commit_comment",
        "create",
        "delete",
        "deployment",
        "deployment_status",
        "download",
        "follow",
        "fork",
        "fork_apply",
        "gist",
        "gollum",
        "issue_comment",
        "issues",
        "member",
        "public",
        "pull_request",
        "pull_request_review_comment",
        "push",
        "release",
        "status",
        "team_add",
        "watch"
      ],
      "title": "IronWorker",
      "schema": [
        [
          "password",
          "token"
        ],
        [
          "string",
          "project_id"
        ],
        [
          "string",
          "code_name"
        ]
      ]
    },
    {
      "name": "jabber",
      "events": [
        "push"
      ],
      "supported_events": [
        "push"
      ],
      "title": "Jabber",
      "schema": [
        [
          "string",
          "user"
        ]
      ]
    },
    {
      "name": "jaconda",
      "events": [
        "commit_comment",
        "download",
        "fork",
        "fork_apply",
        "gollum",
        "issues",
        "issue_comment",
        "member",
        "public",
        "pull_request",
        "push",
        "watch"
      ],
      "supported_events": [
        "commit_comment",
        "create",
        "delete",
        "deployment",
        "deployment_status",
        "download",
        "follow",
        "fork",
        "fork_apply",
        "gist",
        "gollum",
        "issue_comment",
        "issues",
        "member",
        "public",
        "pull_request",
        "pull_request_review_comment",
        "push",
        "release",
        "status",
        "team_add",
        "watch"
      ],
      "title": "Jaconda",
      "schema": [
        [
          "string",
          "subdomain"
        ],
        [
          "string",
          "room_id"
        ],
        [
          "password",
          "room_token"
        ],
        [
          "boolean",
          "digest"
        ]
      ]
    },
    {
      "name": "jenkins",
      "events": [
        "push"
      ],
      "supported_events": [
        "push"
      ],
      "title": "Jenkins (GitHub plugin)",
      "schema": [
        [
          "string",
          "jenkins_hook_url"
        ]
      ]
    },
    {
      "name": "jenkinsgit",
      "events": [
        "push"
      ],
      "supported_events": [
        "push"
      ],
      "title": "Jenkins (Git plugin)",
      "schema": [
        [
          "string",
          "jenkins_url"
        ]
      ]
    },
    {
      "name": "jira",
      "events": [
        "push"
      ],
      "supported_events": [
        "push"
      ],
      "title": "JIRA",
      "schema": [
        [
          "string",
          "server_url"
        ],
        [
          "string",
          "api_version"
        ],
        [
          "string",
          "username"
        ],
        [
          "password",
          "password"
        ]
      ]
    },
    {
      "name": "kanbanery",
      "events": [
        "push"
      ],
      "supported_events": [
        "push"
      ],
      "title": "Kanbanery",
      "schema": [
        [
          "string",
          "project_id"
        ],
        [
          "password",
          "project_token"
        ]
      ]
    },
    {
      "name": "kanbanize",
      "events": [
        "push",
        "issues",
        "issue_comment"
      ],
      "supported_events": [
        "commit_comment",
        "create",
        "delete",
        "deployment",
        "deployment_status",
        "download",
        "follow",
        "fork",
        "fork_apply",
        "gist",
        "gollum",
        "issue_comment",
        "issues",
        "member",
        "public",
        "pull_request",
        "pull_request_review_comment",
        "push",
        "release",
        "status",
        "team_add",
        "watch"
      ],
      "title": "Kanbanize",
      "schema": [
        [
          "string",
          "kanbanize_domain_name"
        ],
        [
          "string",
          "kanbanize_api_key"
        ],
        [
          "string",
          "restrict_to_branch"
        ],
        [
          "boolean",
          "restrict_to_last_commit"
        ],
        [
          "boolean",
          "track_project_issues_in_kanbanize"
        ],
        [
          "string",
          "project_issues_board_id"
        ]
      ]
    },
    {
      "name": "landscape",
      "events": [
        "commit_comment",
        "create",
        "delete",
        "deployment",
        "deployment_status",
        "download",
        "follow",
        "fork",
        "fork_apply",
        "gist",
        "gollum",
        "issue_comment",
        "issues",
        "member",
        "public",
        "pull_request",
        "pull_request_review_comment",
        "push",
        "release",
        "status",
        "team_add",
        "watch"
      ],
      "supported_events": [
        "commit_comment",
        "create",
        "delete",
        "deployment",
        "deployment_status",
        "download",
        "follow",
        "fork",
        "fork_apply",
        "gist",
        "gollum",
        "issue_comment",
        "issues",
        "member",
        "public",
        "pull_request",
        "pull_request_review_comment",
        "push",
        "release",
        "status",
        "team_add",
        "watch"
      ],
      "title": "Landscape",
      "schema": [

      ]
    },
    {
      "name": "leanpub",
      "events": [
        "push"
      ],
      "supported_events": [
        "commit_comment",
        "create",
        "delete",
        "deployment",
        "deployment_status",
        "download",
        "follow",
        "fork",
        "fork_apply",
        "gist",
        "gollum",
        "issue_comment",
        "issues",
        "member",
        "public",
        "pull_request",
        "pull_request_review_comment",
        "push",
        "release",
        "status",
        "team_add",
        "watch"
      ],
      "title": "Leanpub",
      "schema": [
        [
          "string",
          "api_key"
        ],
        [
          "string",
          "slug"
        ]
      ]
    },
    {
      "name": "lighthouse",
      "events": [
        "push"
      ],
      "supported_events": [
        "push"
      ],
      "title": "Lighthouse",
      "schema": [
        [
          "string",
          "subdomain"
        ],
        [
          "string",
          "project_id"
        ],
        [
          "password",
          "token"
        ],
        [
          "boolean",
          "private"
        ],
        [
          "boolean",
          "send_only_ticket_commits"
        ]
      ]
    },
    {
      "name": "lingohub",
      "events": [
        "push"
      ],
      "supported_events": [
        "push"
      ],
      "title": "Lingohub",
      "schema": [
        [
          "password",
          "project_token"
        ]
      ]
    },
    {
      "name": "mantisbt",
      "events": [
        "push"
      ],
      "supported_events": [
        "push"
      ],
      "title": "MantisBT",
      "schema": [
        [
          "string",
          "url"
        ],
        [
          "string",
          "api_key"
        ]
      ]
    },
    {
      "name": "maxcdn",
      "events": [
        "push"
      ],
      "supported_events": [
        "push"
      ],
      "title": "MaxCDN",
      "schema": [
        [
          "string",
          "alias"
        ],
        [
          "string",
          "key"
        ],
        [
          "string",
          "secret"
        ],
        [
          "string",
          "zone_id"
        ],
        [
          "boolean",
          "static_only"
        ]
      ]
    },
    {
      "name": "mqttpub",
      "events": [
        "push"
      ],
      "supported_events": [
        "push"
      ],
      "title": "MQTT publish",
      "schema": [
        [
          "string",
          "broker"
        ],
        [
          "string",
          "port"
        ],
        [
          "string",
          "topic"
        ],
        [
          "string",
          "clientid"
        ],
        [
          "string",
          "user"
        ],
        [
          "password",
          "pass"
        ],
        [
          "boolean",
          "retain"
        ]
      ]
    },
    {
      "name": "myget",
      "events": [
        "push"
      ],
      "supported_events": [
        "commit_comment",
        "create",
        "delete",
        "deployment",
        "deployment_status",
        "download",
        "follow",
        "fork",
        "fork_apply",
        "gist",
        "gollum",
        "issue_comment",
        "issues",
        "member",
        "public",
        "pull_request",
        "pull_request_review_comment",
        "push",
        "release",
        "status",
        "team_add",
        "watch"
      ],
      "title": "MyGet",
      "schema": [
        [
          "string",
          "hook_url"
        ]
      ]
    },
    {
      "name": "obs",
      "events": [
        "push"
      ],
      "supported_events": [
        "commit_comment",
        "create",
        "delete",
        "deployment",
        "deployment_status",
        "download",
        "follow",
        "fork",
        "fork_apply",
        "gist",
        "gollum",
        "issue_comment",
        "issues",
        "member",
        "public",
        "pull_request",
        "pull_request_review_comment",
        "push",
        "release",
        "status",
        "team_add",
        "watch"
      ],
      "title": "Obs",
      "schema": [
        [
          "string",
          "url"
        ],
        [
          "string",
          "project"
        ],
        [
          "string",
          "package"
        ],
        [
          "string",
          "refs"
        ],
        [
          "password",
          "token"
        ]
      ]
    },
    {
      "name": "ontime",
      "events": [
        "push"
      ],
      "supported_events": [
        "push"
      ],
      "title": "OnTime",
      "schema": [
        [
          "string",
          "ontime_url"
        ],
        [
          "string",
          "api_key"
        ]
      ]
    },
    {
      "name": "packagist",
      "events": [
        "push"
      ],
      "supported_events": [
        "push"
      ],
      "title": "Packagist",
      "schema": [
        [
          "string",
          "user"
        ],
        [
          "password",
          "token"
        ],
        [
          "string",
          "domain"
        ]
      ]
    },
    {
      "name": "phraseapp",
      "events": [
        "push"
      ],
      "supported_events": [
        "commit_comment",
        "create",
        "delete",
        "deployment",
        "deployment_status",
        "download",
        "follow",
        "fork",
        "fork_apply",
        "gist",
        "gollum",
        "issue_comment",
        "issues",
        "member",
        "public",
        "pull_request",
        "pull_request_review_comment",
        "push",
        "release",
        "status",
        "team_add",
        "watch"
      ],
      "title": "PhraseApp",
      "schema": [
        [
          "password",
          "auth_token"
        ]
      ]
    },
    {
      "name": "pivotaltracker",
      "events": [
        "push"
      ],
      "supported_events": [
        "push"
      ],
      "title": "PivotalTracker",
      "schema": [
        [
          "password",
          "token"
        ],
        [
          "string",
          "branch"
        ],
        [
          "string",
          "endpoint"
        ]
      ]
    },
    {
      "name": "piwikplugins",
      "events": [
        "push"
      ],
      "supported_events": [
        "commit_comment",
        "create",
        "delete",
        "deployment",
        "deployment_status",
        "download",
        "follow",
        "fork",
        "fork_apply",
        "gist",
        "gollum",
        "issue_comment",
        "issues",
        "member",
        "public",
        "pull_request",
        "pull_request_review_comment",
        "push",
        "release",
        "status",
        "team_add",
        "watch"
      ],
      "title": "Piwik Plugins",
      "schema": [

      ]
    },
    {
      "name": "planbox",
      "events": [
        "push"
      ],
      "supported_events": [
        "push"
      ],
      "title": "Planbox",
      "schema": [
        [
          "password",
          "token"
        ]
      ]
    },
    {
      "name": "planio",
      "events": [
        "push"
      ],
      "supported_events": [
        "push"
      ],
      "title": "Planio",
      "schema": [
        [
          "string",
          "address"
        ],
        [
          "string",
          "project"
        ],
        [
          "string",
          "api_key"
        ]
      ]
    },
    {
      "name": "prowl",
      "events": [
        "push"
      ],
      "supported_events": [
        "push"
      ],
      "title": "Prowl",
      "schema": [
        [
          "string",
          "apikey"
        ]
      ]
    },
    {
      "name": "pushbullet",
      "events": [
        "push",
        "issues",
        "pull_request"
      ],
      "supported_events": [
        "commit_comment",
        "create",
        "delete",
        "deployment",
        "deployment_status",
        "download",
        "follow",
        "fork",
        "fork_apply",
        "gist",
        "gollum",
        "issue_comment",
        "issues",
        "member",
        "public",
        "pull_request",
        "pull_request_review_comment",
        "push",
        "release",
        "status",
        "team_add",
        "watch"
      ],
      "title": "Pushbullet",
      "schema": [
        [
          "string",
          "api_key"
        ],
        [
          "string",
          "device_iden"
        ]
      ]
    },
    {
      "name": "pushover",
      "events": [
        "push"
      ],
      "supported_events": [
        "push"
      ],
      "title": "Pushover",
      "schema": [
        [
          "string",
          "user_key"
        ],
        [
          "string",
          "device_name"
        ]
      ]
    },
    {
      "name": "rally",
      "events": [
        "push"
      ],
      "supported_events": [
        "push"
      ],
      "title": "Rally",
      "schema": [
        [
          "string",
          "server"
        ],
        [
          "string",
          "username"
        ],
        [
          "string",
          "workspace"
        ],
        [
          "string",
          "repository"
        ],
        [
          "password",
          "password"
        ]
      ]
    },
    {
      "name": "rationalteamconcert",
      "events": [
        "push"
      ],
      "supported_events": [
        "push"
      ],
      "title": "RationalTeamConcert",
      "schema": [
        [
          "string",
          "server_url"
        ],
        [
          "string",
          "username"
        ],
        [
          "string",
          "project_area_uuid"
        ],
        [
          "password",
          "password"
        ],
        [
          "boolean",
          "basic_authentication"
        ],
        [
          "boolean",
          "no_verify_ssl"
        ]
      ]
    },
    {
      "name": "rdocinfo",
      "events": [
        "push"
      ],
      "supported_events": [
        "commit_comment",
        "create",
        "delete",
        "deployment",
        "deployment_status",
        "download",
        "follow",
        "fork",
        "fork_apply",
        "gist",
        "gollum",
        "issue_comment",
        "issues",
        "member",
        "public",
        "pull_request",
        "pull_request_review_comment",
        "push",
        "release",
        "status",
        "team_add",
        "watch"
      ],
      "title": "RubyDoc.info",
      "schema": [

      ]
    },
    {
      "name": "readthedocs",
      "events": [
        "push"
      ],
      "supported_events": [
        "push"
      ],
      "title": "ReadTheDocs",
      "schema": [

      ]
    },
    {
      "name": "redmine",
      "events": [
        "push"
      ],
      "supported_events": [
        "push"
      ],
      "title": "Redmine",
      "schema": [
        [
          "string",
          "address"
        ],
        [
          "string",
          "project"
        ],
        [
          "string",
          "api_key"
        ],
        [
          "boolean",
          "fetch_commits"
        ],
        [
          "boolean",
          "update_redmine_issues_about_commits"
        ]
      ]
    },
    {
      "name": "scrumdo",
      "events": [
        "push"
      ],
      "supported_events": [
        "push"
      ],
      "title": "ScrumDo",
      "schema": [
        [
          "string",
          "username"
        ],
        [
          "string",
          "project_slug"
        ],
        [
          "password",
          "password"
        ]
      ]
    },
    {
      "name": "sifter",
      "events": [
        "push"
      ],
      "supported_events": [
        "push"
      ],
      "title": "Sifter",
      "schema": [
        [
          "string",
          "subdomain"
        ],
        [
          "password",
          "token"
        ]
      ]
    },
    {
      "name": "simperium",
      "events": [
        "push",
        "issues",
        "issue_comment",
        "commit_comment",
        "pull_request",
        "pull_request_review_comment",
        "watch",
        "fork",
        "fork_apply",
        "member",
        "public",
        "team_add",
        "status"
      ],
      "supported_events": [
        "commit_comment",
        "create",
        "delete",
        "deployment",
        "deployment_status",
        "download",
        "follow",
        "fork",
        "fork_apply",
        "gist",
        "gollum",
        "issue_comment",
        "issues",
        "member",
        "public",
        "pull_request",
        "pull_request_review_comment",
        "push",
        "release",
        "status",
        "team_add",
        "watch"
      ],
      "title": "Simperium",
      "schema": [
        [
          "string",
          "app_id"
        ],
        [
          "string",
          "bucket"
        ],
        [
          "password",
          "token"
        ]
      ]
    },
    {
      "name": "skydeskprojects",
      "events": [
        "push"
      ],
      "supported_events": [
        "commit_comment",
        "create",
        "delete",
        "deployment",
        "deployment_status",
        "download",
        "follow",
        "fork",
        "fork_apply",
        "gist",
        "gollum",
        "issue_comment",
        "issues",
        "member",
        "public",
        "pull_request",
        "pull_request_review_comment",
        "push",
        "release",
        "status",
        "team_add",
        "watch"
      ],
      "title": "SkyDeskProjects",
      "schema": [
        [
          "string",
          "project_id"
        ],
        [
          "password",
          "token"
        ]
      ]
    },
    {
      "name": "smartling",
      "events": [
        "push"
      ],
      "supported_events": [
        "push"
      ],
      "title": "Smartling",
      "schema": [
        [
          "string",
          "service_url"
        ],
        [
          "string",
          "project_id"
        ],
        [
          "password",
          "api_key"
        ],
        [
          "string",
          "config_path"
        ],
        [
          "boolean",
          "master_only"
        ]
      ]
    },
    {
      "name": "snowyevening",
      "events": [
        "push"
      ],
      "supported_events": [
        "push"
      ],
      "title": "SnowyEvening",
      "schema": [
        [
          "string",
          "project"
        ],
        [
          "string",
          "api_key"
        ]
      ]
    },
    {
      "name": "softlayermessaging",
      "events": [
        "push"
      ],
      "supported_events": [
        "push"
      ],
      "title": "SoftLayerMessaging",
      "schema": [
        [
          "string",
          "account"
        ],
        [
          "string",
          "user"
        ],
        [
          "string",
          "name"
        ],
        [
          "password",
          "key"
        ],
        [
          "boolean",
          "topic"
        ]
      ]
    },
    {
      "name": "sprintly",
      "events": [
        "commit_comment",
        "create",
        "delete",
        "download",
        "follow",
        "fork",
        "fork_apply",
        "gist",
        "gollum",
        "issue_comment",
        "issues",
        "member",
        "public",
        "pull_request",
        "push",
        "team_add",
        "watch",
        "pull_request_review_comment",
        "status"
      ],
      "supported_events": [
        "commit_comment",
        "create",
        "delete",
        "deployment",
        "deployment_status",
        "download",
        "follow",
        "fork",
        "fork_apply",
        "gist",
        "gollum",
        "issue_comment",
        "issues",
        "member",
        "public",
        "pull_request",
        "pull_request_review_comment",
        "push",
        "release",
        "status",
        "team_add",
        "watch"
      ],
      "title": "Sprintly",
      "schema": [
        [
          "string",
          "email"
        ],
        [
          "string",
          "api_key"
        ],
        [
          "string",
          "product_id"
        ]
      ]
    },
    {
      "name": "sqsqueue",
      "events": [
        "push"
      ],
      "supported_events": [
        "commit_comment",
        "create",
        "delete",
        "deployment",
        "deployment_status",
        "download",
        "follow",
        "fork",
        "fork_apply",
        "gist",
        "gollum",
        "issue_comment",
        "issues",
        "member",
        "public",
        "pull_request",
        "pull_request_review_comment",
        "push",
        "release",
        "status",
        "team_add",
        "watch"
      ],
      "title": "Amazon SQS",
      "schema": [
        [
          "string",
          "aws_access_key"
        ],
        [
          "string",
          "aws_sqs_arn"
        ],
        [
          "password",
          "aws_secret_key"
        ]
      ]
    },
    {
      "name": "statusnet",
      "events": [
        "push"
      ],
      "supported_events": [
        "push"
      ],
      "title": "StatusNet",
      "schema": [
        [
          "string",
          "server"
        ],
        [
          "string",
          "username"
        ],
        [
          "password",
          "password"
        ],
        [
          "boolean",
          "digest"
        ]
      ]
    },
    {
      "name": "talker",
      "events": [
        "push"
      ],
      "supported_events": [
        "issues",
        "pull_request",
        "push"
      ],
      "title": "Talker",
      "schema": [
        [
          "string",
          "url"
        ],
        [
          "password",
          "token"
        ],
        [
          "boolean",
          "digest"
        ]
      ]
    },
    {
      "name": "targetprocess",
      "events": [
        "push"
      ],
      "supported_events": [
        "push"
      ],
      "title": "TargetProcess",
      "schema": [
        [
          "string",
          "base_url"
        ],
        [
          "string",
          "username"
        ],
        [
          "password",
          "password"
        ]
      ]
    },
    {
      "name": "tddium",
      "events": [
        "commit_comment",
        "create",
        "delete",
        "deployment",
        "deployment_status",
        "download",
        "follow",
        "fork",
        "fork_apply",
        "gist",
        "gollum",
        "issue_comment",
        "issues",
        "member",
        "public",
        "pull_request",
        "pull_request_review_comment",
        "push",
        "release",
        "status",
        "team_add",
        "watch"
      ],
      "supported_events": [
        "commit_comment",
        "create",
        "delete",
        "deployment",
        "deployment_status",
        "download",
        "follow",
        "fork",
        "fork_apply",
        "gist",
        "gollum",
        "issue_comment",
        "issues",
        "member",
        "public",
        "pull_request",
        "pull_request_review_comment",
        "push",
        "release",
        "status",
        "team_add",
        "watch"
      ],
      "title": "Tddium",
      "schema": [
        [
          "password",
          "token"
        ],
        [
          "string",
          "override_url"
        ]
      ]
    },
    {
      "name": "teamcity",
      "events": [
        "push"
      ],
      "supported_events": [
        "push"
      ],
      "title": "TeamCity",
      "schema": [
        [
          "string",
          "base_url"
        ],
        [
          "string",
          "build_type_id"
        ],
        [
          "string",
          "branches"
        ],
        [
          "boolean",
          "full_branch_ref"
        ],
        [
          "string",
          "username"
        ],
        [
          "password",
          "password"
        ],
        [
          "boolean",
          "check_for_changes_only"
        ]
      ]
    },
    {
      "name": "tender",
      "events": [
        "issues",
        "pull_request"
      ],
      "supported_events": [
        "issues",
        "pull_request"
      ],
      "title": "Tender",
      "schema": [
        [
          "string",
          "domain"
        ],
        [
          "password",
          "token"
        ]
      ]
    },
    {
      "name": "toggl",
      "events": [
        "push"
      ],
      "supported_events": [
        "push"
      ],
      "title": "Toggl",
      "schema": [
        [
          "string",
          "project"
        ],
        [
          "password",
          "api_token"
        ]
      ]
    },
    {
      "name": "trac",
      "events": [
        "push"
      ],
      "supported_events": [
        "push"
      ],
      "title": "Trac",
      "schema": [
        [
          "string",
          "url"
        ],
        [
          "password",
          "token"
        ]
      ]
    },
    {
      "name": "travis",
      "events": [
        "push",
        "pull_request",
        "issue_comment",
        "public",
        "member"
      ],
      "supported_events": [
        "commit_comment",
        "create",
        "delete",
        "deployment",
        "deployment_status",
        "download",
        "follow",
        "fork",
        "fork_apply",
        "gist",
        "gollum",
        "issue_comment",
        "issues",
        "member",
        "public",
        "pull_request",
        "pull_request_review_comment",
        "push",
        "release",
        "status",
        "team_add",
        "watch"
      ],
      "title": "Travis CI",
      "schema": [
        [
          "string",
          "user"
        ],
        [
          "password",
          "token"
        ],
        [
          "string",
          "domain"
        ]
      ]
    },
    {
      "name": "trello",
      "events": [
        "push",
        "pull_request"
      ],
      "supported_events": [
        "pull_request",
        "push"
      ],
      "title": "Trello",
      "schema": [
        [
          "string",
          "push_list_id"
        ],
        [
          "string",
          "pull_request_list_id"
        ],
        [
          "string",
          "ignore_regex"
        ],
        [
          "boolean",
          "master_only"
        ],
        [
          "password",
          "consumer_token"
        ]
      ]
    },
    {
      "name": "twilio",
      "events": [
        "push"
      ],
      "supported_events": [
        "push"
      ],
      "title": "Twilio",
      "schema": [
        [
          "string",
          "account_sid"
        ],
        [
          "string",
          "from_phone"
        ],
        [
          "string",
          "to_phone"
        ],
        [
          "boolean",
          "master_only"
        ],
        [
          "password",
          "auth_token"
        ]
      ]
    },
    {
      "name": "twitter",
      "events": [
        "push"
      ],
      "supported_events": [
        "push"
      ],
      "title": "Twitter",
      "schema": [
        [
          "password",
          "token"
        ],
        [
          "password",
          "secret"
        ],
        [
          "string",
          "filter_branch"
        ],
        [
          "boolean",
          "digest"
        ],
        [
          "boolean",
          "short_format"
        ]
      ]
    },
    {
      "name": "typetalk",
      "events": [
        "push",
        "pull_request"
      ],
      "supported_events": [
        "commit_comment",
        "create",
        "delete",
        "deployment",
        "deployment_status",
        "download",
        "follow",
        "fork",
        "fork_apply",
        "gist",
        "gollum",
        "issue_comment",
        "issues",
        "member",
        "public",
        "pull_request",
        "pull_request_review_comment",
        "push",
        "release",
        "status",
        "team_add",
        "watch"
      ],
      "title": "Typetalk",
      "schema": [
        [
          "string",
          "client_id"
        ],
        [
          "string",
          "topic"
        ],
        [
          "string",
          "restrict_to_branch"
        ],
        [
          "password",
          "client_secret"
        ]
      ]
    },
    {
      "name": "unfuddle",
      "events": [
        "push"
      ],
      "supported_events": [
        "push"
      ],
      "title": "Unfuddle",
      "schema": [
        [
          "string",
          "subdomain"
        ],
        [
          "string",
          "repo_id"
        ],
        [
          "string",
          "username"
        ],
        [
          "password",
          "password"
        ],
        [
          "boolean",
          "httponly"
        ]
      ]
    },
    {
      "name": "web",
      "events": [
        "push"
      ],
      "supported_events": [
        "commit_comment",
        "create",
        "delete",
        "deployment",
        "deployment_status",
        "download",
        "follow",
        "fork",
        "fork_apply",
        "gist",
        "gollum",
        "issue_comment",
        "issues",
        "member",
        "public",
        "pull_request",
        "pull_request_review_comment",
        "push",
        "release",
        "status",
        "team_add",
        "watch"
      ],
      "title": "Web",
      "schema": [
        [
          "string",
          "url"
        ],
        [
          "string",
          "content_type"
        ],
        [
          "password",
          "secret"
        ],
        [
          "boolean",
          "insecure_ssl"
        ]
      ]
    },
    {
      "name": "weblate",
      "events": [
        "push"
      ],
      "supported_events": [
        "push"
      ],
      "title": "Weblate",
      "schema": [
        [
          "string",
          "url"
        ]
      ]
    },
    {
      "name": "webtranslateit",
      "events": [
        "push"
      ],
      "supported_events": [
        "push"
      ],
      "title": "WebTranslateIt",
      "schema": [
        [
          "string",
          "api_key"
        ]
      ]
    },
    {
      "name": "windowsazure",
      "events": [
        "push"
      ],
      "supported_events": [
        "commit_comment",
        "create",
        "delete",
        "deployment",
        "deployment_status",
        "download",
        "follow",
        "fork",
        "fork_apply",
        "gist",
        "gollum",
        "issue_comment",
        "issues",
        "member",
        "public",
        "pull_request",
        "pull_request_review_comment",
        "push",
        "release",
        "status",
        "team_add",
        "watch"
      ],
      "title": "WindowsAzure",
      "schema": [
        [
          "string",
          "hostname"
        ],
        [
          "string",
          "username"
        ],
        [
          "string",
          "password"
        ]
      ]
    },
    {
      "name": "xmpp_im",
      "events": [
        "push",
        "commit_comment",
        "issue_comment",
        "issues",
        "pull_request",
        "pull_request_review_comment",
        "gollum"
      ],
      "supported_events": [
        "commit_comment",
        "create",
        "delete",
        "deployment",
        "deployment_status",
        "download",
        "follow",
        "fork",
        "fork_apply",
        "gist",
        "gollum",
        "issue_comment",
        "issues",
        "member",
        "public",
        "pull_request",
        "pull_request_review_comment",
        "push",
        "release",
        "status",
        "team_add",
        "watch"
      ],
      "title": "XMPP IM",
      "schema": [
        [
          "string",
          "JID"
        ],
        [
          "string",
          "receivers"
        ],
        [
          "string",
          "host"
        ],
        [
          "string",
          "port"
        ],
        [
          "password",
          "password"
        ],
        [
          "boolean",
          "notify_fork"
        ],
        [
          "boolean",
          "notify_wiki"
        ],
        [
          "boolean",
          "notify_comments"
        ],
        [
          "boolean",
          "notify_issue"
        ],
        [
          "boolean",
          "notify_watch"
        ],
        [
          "boolean",
          "notify_pull"
        ]
      ]
    },
    {
      "name": "xmpp_muc",
      "events": [
        "push",
        "commit_comment",
        "issue_comment",
        "issues",
        "pull_request",
        "pull_request_review_comment",
        "gollum"
      ],
      "supported_events": [
        "commit_comment",
        "create",
        "delete",
        "deployment",
        "deployment_status",
        "download",
        "follow",
        "fork",
        "fork_apply",
        "gist",
        "gollum",
        "issue_comment",
        "issues",
        "member",
        "public",
        "pull_request",
        "pull_request_review_comment",
        "push",
        "release",
        "status",
        "team_add",
        "watch"
      ],
      "title": "XMPP MUC",
      "schema": [
        [
          "string",
          "JID"
        ],
        [
          "string",
          "room"
        ],
        [
          "string",
          "server"
        ],
        [
          "string",
          "nickname"
        ],
        [
          "string",
          "host"
        ],
        [
          "string",
          "port"
        ],
        [
          "password",
          "password"
        ],
        [
          "password",
          "room_password"
        ],
        [
          "boolean",
          "notify_fork"
        ],
        [
          "boolean",
          "notify_wiki"
        ],
        [
          "boolean",
          "notify_comments"
        ],
        [
          "boolean",
          "notify_issue"
        ],
        [
          "boolean",
          "notify_watch"
        ],
        [
          "boolean",
          "notify_pull"
        ]
      ]
    },
    {
      "name": "xmpphelper",
      "events": [
        "push"
      ],
      "supported_events": [
        "commit_comment",
        "create",
        "delete",
        "deployment",
        "deployment_status",
        "download",
        "follow",
        "fork",
        "fork_apply",
        "gist",
        "gollum",
        "issue_comment",
        "issues",
        "member",
        "public",
        "pull_request",
        "pull_request_review_comment",
        "push",
        "release",
        "status",
        "team_add",
        "watch"
      ],
      "title": "XmppHelper",
      "schema": [

      ]
    },
    {
      "name": "youtrack",
      "events": [
        "push",
        "pull_request"
      ],
      "supported_events": [
        "pull_request",
        "push"
      ],
      "title": "YouTrack",
      "schema": [
        [
          "string",
          "base_url"
        ],
        [
          "string",
          "committers"
        ],
        [
          "string",
          "username"
        ],
        [
          "string",
          "branch"
        ],
        [
          "boolean",
          "process_distinct"
        ],
        [
          "password",
          "password"
        ]
      ]
    },
    {
      "name": "zendesk",
      "events": [
        "commit_comment",
        "issues",
        "issue_comment",
        "pull_request",
        "push"
      ],
      "supported_events": [
        "commit_comment",
        "create",
        "delete",
        "deployment",
        "deployment_status",
        "download",
        "follow",
        "fork",
        "fork_apply",
        "gist",
        "gollum",
        "issue_comment",
        "issues",
        "member",
        "public",
        "pull_request",
        "pull_request_review_comment",
        "push",
        "release",
        "status",
        "team_add",
        "watch"
      ],
      "title": "Zendesk",
      "schema": [
        [
          "string",
          "subdomain"
        ],
        [
          "string",
          "username"
        ],
        [
          "password",
          "password"
        ]
      ]
    },
    {
      "name": "zohoprojects",
      "events": [
        "push"
      ],
      "supported_events": [
        "push"
      ],
      "title": "ZohoProjects",
      "schema": [
        [
          "string",
          "project_id"
        ],
        [
          "password",
          "token"
        ]
      ]
    }
  ]
}