{
  "$schema": "http://json-schema.org/draft-04/schema#",
  "id": "https://schema.github.com/v3/avatar.json",
  "type": "object",
  "definitions": {
    "url": {
      "type": "string"
    },
    "name": {
      "type": "string"
    },
    "max_age": {
      "type": "integer"
    },
    "fileservers": {
      "type": "array",
      "items": {
        "type": "string"
      }
    }
  },
  "properties": {
    "url": {
      "$ref": "#/definitions/url"
    },
    "name": {
      "$ref": "#/definitions/name"
    },
    "max_age": {
      "$ref": "#/definitions/max_age"
    },
    "fileservers": {
      "$ref": "#/definitions/fileservers"
    }
  },
  "additionalProperties": false,
  "required": [
    "url",
    "name"
  ]
}
