{
  "$schema": "http://json-schema.org/draft-04/schema#",
  "id": "https://schema.github.com/v3/code-search-result-item.json",
  "title": "Code Search Result Item",
  "type": "object",
  "definitions": {
    "score": {
      "type": "number"
    },
    "name": {
      "type": "string"
    },
    "path": {
      "type": "string"
    },
    "sha": {
      "type": "string"
    },
    "file_size": {
      "type": "integer"
    },
    "line_numbers": {
      "type": "array"
    },
    "language": {
      "type": [
        "string",
        "null"
      ]
    },
    "last_modified_at": {
      "type": "string",
      "format": "date-time"
    },
    "git_url": {
      "type": "string",
      "format": "uri"
    },
    "html_url": {
      "type": "string",
      "format": "uri"
    },
    "url": {
      "type": "string",
      "format": "uri"
    },
    "text_matches": {
      "type": "array"
    }
  },
  "properties": {
    "score": {
      "$ref": "#/definitions/score"
    },
    "name": {
      "$ref": "#/definitions/name"
    },
    "path": {
      "$ref": "#/definitions/path"
    },
    "sha": {
      "$ref": "#/definitions/sha"
    },
    "file_size": {
      "$ref": "#/definitions/file_size"
    },
    "line_numbers": {
      "$ref": "#/definitions/line_numbers"
    },
    "language": {
      "$ref": "#/definitions/language"
    },
    "last_modified_at": {
      "$ref": "#/definitions/last_modified_at"
    },
    "git_url": {
      "$ref": "#/definitions/git_url"
    },
    "html_url": {
      "$ref": "#/definitions/html_url"
    },
    "url": {
      "$ref": "#/definitions/url"
    },
    "repository": {
      "$ref": "https://schema.github.com/v3/minimal-repository.json#"
    },
    "text_matches": {
      "$ref": "#/definitions/text_matches"
    }
  },
  "additionalProperties": false,
  "required": [
    "score",
    "name",
    "path",
    "sha",
    "git_url",
    "html_url",
    "url",
    "repository"
  ]
}
