{
  "$schema": "http://json-schema.org/draft-04/hyper-schema",
  "id": "https://schema.github.com/v3/container-scanning-check-run.json",
  "type": "object",
  "definitions": {
    "head_sha": {
      "type": "string",
      "example": "f921edcc74d6b492ec068f5aa02b0e9a2cd45f5b"
    },
    "summary": {
      "type": "string"
    },
    "description": {
      "type": "string"
    },
    "image_name": {
      "type": "string"
    },
    "action_name": {
      "type": "string"
    },
    "action_sha": {
      "type": "string"
    },
    "status": {
      "type": "string"
    },
    "additional_properties": {
      "type": "object"
    }
  },
  "links": [
    {
      "title": "Create a new check-run using the scanitizer webapp",
      "method": "POST",
      "rel": "create",
      "href": "/repositories/{repository_id}/container-scanning/check-run",
      "schema": {
        "properties": {
          "head_sha": {
            "$ref": "#/definitions/head_sha"
          },
          "summary": {
            "$ref": "#/definitions/summary"
          },
          "description": {
            "$ref": "#/definitions/description"
          },
          "image_name": {
            "$ref": "#/definitions/image_name"
          },
          "action_name": {
            "$ref": "#/definitions/action_name"
          },
          "action_sha": {
            "$ref": "#/definitions/action_sha"
          },
          "status": {
            "$ref": "#/definitions/status"
          },
          "additional_properties": {
            "$ref": "#/definitions/additional_properties"
          }
        },
        "required": [
          "head_sha",
          "summary",
          "description",
          "image_name",
          "action_name",
          "action_sha"
        ],
        "type": "object",
        "additionalProperties": false
      }
    }
  ]
}