{
  "$schema": "http://json-schema.org/draft-04/schema#",
  "id": "https://schema.github.com/v3/content-file.json",
  "title": "Content File",
  "type": "object",
  "definitions": {
    "git_url": {
      "type": [
        "string",
        "null"
      ],
      "format": "uri"
    },
    "html_url": {
      "type": [
        "string",
        "null"
      ],
      "format": "uri"
    },
    "download_url": {
      "type": [
        "string",
        "null"
      ],
      "format": "uri"
    },
    "name": {
      "type": "string"
    },
    "path": {
      "type": "string"
    },
    "sha": {
      "type": "string"
    },
    "size": {
      "type": "integer"
    },
    "type": {
      "type": "string"
    },
    "url": {
      "type": "string",
      "format": "uri"
    },
    "content": {
      "type": "string"
    },
    "encoding": {
      "type": "string"
    }
  },
  "properties": {
    "_links": {
      "type": "object",
      "properties": {
        "git": {
          "type": [
            "string",
            "null"
          ],
          "format": "uri"
        },
        "html": {
          "type": [
            "string",
            "null"
          ],
          "format": "uri"
        },
        "self": {
          "type": "string",
          "format": "uri"
        }
      },
      "additionalProperties": false,
      "required": [
        "git",
        "html",
        "self"
      ]
    },
    "git_url": {
      "$ref": "#/definitions/git_url"
    },
    "html_url": {
      "$ref": "#/definitions/html_url"
    },
    "download_url": {
      "$ref": "#/definitions/download_url"
    },
    "name": {
      "$ref": "#/definitions/name"
    },
    "path": {
      "$ref": "#/definitions/path"
    },
    "sha": {
      "$ref": "#/definitions/sha"
    },
    "size": {
      "$ref": "#/definitions/size"
    },
    "type": {
      "$ref": "#/definitions/type"
    },
    "url": {
      "$ref": "#/definitions/url"
    },
    "content": {
      "$ref": "#/definitions/content"
    },
    "encoding": {
      "$ref": "#/definitions/encoding"
    }
  },
  "additionalProperties": false,
  "required": [
    "_links",
    "git_url",
    "html_url",
    "download_url",
    "name",
    "path",
    "sha",
    "size",
    "type",
    "url",
    "content",
    "encoding"
  ]
}
