{
  "$schema": "http://json-schema.org/draft-04/schema#",
  "id": "https://schema.github.com/v3/enterprise-settings-auth.json",
  "title": "Enterprise Settings Auth",
  "type": "object",
  "definitions": {
    "mode": {
      "type": "string"
    },
    "host": {
      "type": "string"
    },
    "port": {
      "type": "integer"
    },
    "base": {
      "type": "array"
    },
    "bind_dn": {
      "type": "string"
    },
    "password": {
      "type": [
        "string",
        "null"
      ]
    },
    "method": {
      "type": [
        "string",
        "null"
      ]
    },
    "admin_group": {
      "type": [
        "string",
        "null"
      ]
    },
    "user_groups": {
      "type": [
        "array",
        "null"
      ]
    },
    "profile_uid": {
      "type": "string"
    },
    "profile_name": {
      "type": [
        "string",
        "null"
      ]
    },
    "profile_mail": {
      "type": [
        "string",
        "null"
      ]
    },
    "profile_public_key": {
      "type": [
        "string",
        "null"
      ]
    },
    "profile_account_control": {
      "type": [
        "string",
        "null"
      ]
    }
  },
  "properties": {
    "mode": {
      "$ref": "#/definitions/mode"
    },
    "host": {
      "$ref": "#/definitions/host"
    },
    "port": {
      "$ref": "#/definitions/port"
    },
    "base": {
      "$ref": "#/definitions/base"
    },
    "bind_dn": {
      "$ref": "#/definitions/bind_dn"
    },
    "password": {
      "$ref": "#/definitions/password"
    },
    "method": {
      "$ref": "#/definitions/method"
    },
    "admin_group": {
      "$ref": "#/definitions/admin_group"
    },
    "user_groups": {
      "$ref": "#/definitions/user_groups"
    },
    "profile_uid": {
      "$ref": "#/definitions/profile_uid"
    },
    "profile_name": {
      "$ref": "#/definitions/profile_name"
    },
    "profile_mail": {
      "$ref": "#/definitions/profile_mail"
    },
    "profile_public_key": {
      "$ref": "#/definitions/profile_public_key"
    },
    "profile_account_control": {
      "$ref": "#/definitions/profile_account_control"
    }
  },
  "additionalProperties": false,
  "required": [
    "mode"
  ]
}
