{
  "$schema": "http://json-schema.org/draft-04/schema#",
  "id": "https://schema.github.com/v3/gist-file-detail.json",
  "title": "Gist File Detail",
  "type": "object",
  "definitions": {
    "filename": {
      "type": "string"
    },
    "type": {
      "type": "string"
    },
    "language": {
      "type": [
        "string",
        "null"
      ]
    },
    "raw_url": {
      "type": "string",
      "format": "uri"
    },
    "size": {
      "type": "integer"
    },
    "content": {
      "type": "string"
    },
    "truncated": {
      "type": "boolean"
    }
  },
  "properties": {
    "filename": {
      "$ref": "#/definitions/filename"
    },
    "type": {
      "$ref": "#/definitions/type"
    },
    "language": {
      "$ref": "#/definitions/language"
    },
    "raw_url": {
      "$ref": "#/definitions/raw_url"
    },
    "size": {
      "$ref": "#/definitions/size"
    },
    "content": {
      "$ref": "#/definitions/content"
    },
    "truncated": {
      "$ref": "#/definitions/truncated"
    }
  },
  "additionalProperties": false,
  "required": [
    "filename",
    "type",
    "language",
    "raw_url",
    "size",
    "content",
    "truncated"
  ]
}
