{
  "$schema": "http://json-schema.org/draft-04/schema#",
  "id": "https://schema.github.com/v3/gitignore-template.json",
  "title": "Gitignore Template",
  "type": "object",
  "definitions": {
    "name": {
      "type": "string",
      "example": "C"
    },
    "source": {
      "type": "string",
      "example": "# Object files\n*.o\n\n# Libraries\n*.lib\n*.a\n\n# Shared objects (inc. Windows DLLs)\n*.dll\n*.so\n*.so.*\n*.dylib\n\n# Executables\n*.exe\n*.out\n*.app\n"
    }
  },
  "properties": {
    "name": {
      "$ref": "#/definitions/name"
    },
    "source": {
      "$ref": "#/definitions/source"
    }
  },
  "additionalProperties": false,
  "required": [
    "name",
    "source"
  ]
}
