{
  "$schema": "http://json-schema.org/draft-04/schema#",
  "id": "https://schema.github.com/v3/hook-definition.json",
  "title": "Hook Definition",
  "type": "object",
  "definitions": {
    "name": {
      "type": "string"
    },
    "title": {
      "type": "string"
    },
    "events": {
      "type": "array"
    },
    "supported_events": {
      "type": "array"
    },
    "schema": {
      "type": "array"
    }
  },
  "properties": {
    "name": {
      "$ref": "#/definitions/name"
    },
    "title": {
      "$ref": "#/definitions/title"
    },
    "events": {
      "$ref": "#/definitions/events"
    },
    "supported_events": {
      "$ref": "#/definitions/supported_events"
    },
    "schema": {
      "$ref": "#/definitions/schema"
    }
  },
  "additionalProperties": false,
  "required": [
    "name",
    "events",
    "supported_events",
    "schema"
  ]
}
