{
  "$schema": "http://json-schema.org/draft-04/schema#",
  "id": "https://schema.github.com/v3/issue-with-repo.json",
  "title": "Issue With Repo",
  "type": "object",
  "definitions": {
    "assignees": {
      "type": [
        "array",
        "null"
      ],
      "items": {
        "oneOf": [
          {
            "type": "null"
          },
          {
            "$ref": "https://schema.github.com/v3/simple-user.json#"
          }
        ]
      }
    },
    "body": {
      "type": "string"
    },
    "body_html": {
      "type": "string"
    },
    "body_text": {
      "type": "string"
    },
    "closed_at": {
      "type": [
        "string",
        "null"
      ],
      "format": "date-time"
    },
    "comments": {
      "type": "integer"
    },
    "comments_url": {
      "type": "string",
      "format": "uri"
    },
    "events_url": {
      "type": "string",
      "format": "uri"
    },
    "timeline_url": {
      "type": "string",
      "format": "uri"
    },
    "html_url": {
      "type": "string",
      "format": "uri"
    },
    "id": {
      "type": "integer"
    },
    "node_id": {
      "type": "string"
    },
    "labels": {
      "type": "array"
    },
    "labels_url": {
      "type": "string"
    },
    "number": {
      "type": "integer"
    },
    "repository_url": {
      "type": "string",
      "format": "uri"
    },
    "state": {
      "type": "string"
    },
    "locked": {
      "type": "boolean"
    },
    "active_lock_reason": {
      "type": [
        "string",
        "null"
      ]
    },
    "title": {
      "type": "string"
    },
    "url": {
      "type": "string",
      "format": "uri"
    },
    "author_association": {
      "type": "string"
    },
    "created_at": {
      "type": "string",
      "format": "date-time"
    },
    "updated_at": {
      "type": "string",
      "format": "date-time"
    }
  },
  "properties": {
    "assignee": {
      "oneOf": [
        {
          "type": "null"
        },
        {
          "$ref": "https://schema.github.com/v3/simple-user.json#"
        }
      ]
    },
    "assignees": {
      "$ref": "#/definitions/assignees"
    },
    "body": {
      "$ref": "#/definitions/body"
    },
    "body_html": {
      "$ref": "#/definitions/body_html"
    },
    "body_text": {
      "$ref": "#/definitions/body_text"
    },
    "closed_at": {
      "$ref": "#/definitions/closed_at"
    },
    "comments": {
      "$ref": "#/definitions/comments"
    },
    "comments_url": {
      "$ref": "#/definitions/comments_url"
    },
    "events_url": {
      "$ref": "#/definitions/events_url"
    },
    "timeline_url": {
      "$ref": "#/definitions/timeline_url"
    },
    "html_url": {
      "$ref": "#/definitions/html_url"
    },
    "id": {
      "$ref": "#/definitions/id"
    },
    "node_id": {
      "$ref": "#/definitions/node_id"
    },
    "labels": {
      "$ref": "#/definitions/labels"
    },
    "labels_url": {
      "$ref": "#/definitions/labels_url"
    },
    "milestone": {
      "oneOf": [
        {
          "type": "null"
        },
        {
          "$ref": "https://schema.github.com/v3/milestone.json#"
        }
      ]
    },
    "number": {
      "$ref": "#/definitions/number"
    },
    "pull_request": {
      "type": "object",
      "properties": {
        "merged_at": {
          "type": [
            "string",
            "null"
          ],
          "format": "date-time"
        },
        "diff_url": {
          "type": [
            "string",
            "null"
          ],
          "format": "uri"
        },
        "html_url": {
          "type": [
            "string",
            "null"
          ],
          "format": "uri"
        },
        "patch_url": {
          "type": [
            "string",
            "null"
          ],
          "format": "uri"
        },
        "url": {
          "type": [
            "string",
            "null"
          ],
          "format": "uri"
        }
      },
      "additionalProperties": false,
      "required": [
        "diff_url",
        "html_url",
        "patch_url",
        "url"
      ]
    },
    "repository_url": {
      "$ref": "#/definitions/repository_url"
    },
    "state": {
      "$ref": "#/definitions/state"
    },
    "locked": {
      "$ref": "#/definitions/locked"
    },
    "active_lock_reason": {
      "$ref": "#/definitions/active_lock_reason"
    },
    "title": {
      "$ref": "#/definitions/title"
    },
    "url": {
      "$ref": "#/definitions/url"
    },
    "user": {
      "oneOf": [
        {
          "type": "null"
        },
        {
          "$ref": "https://schema.github.com/v3/simple-user.json#"
        }
      ]
    },
    "repository": {
      "$ref": "https://schema.github.com/v3/repository.json#"
    },
    "performed_via_github_app": {
      "oneOf": [
        {
          "type": "null"
        },
        {
          "$ref": "https://schema.github.com/v3/integration.json#"
        }
      ]
    },
    "author_association": {
      "$ref": "#/definitions/author_association"
    },
    "created_at": {
      "$ref": "#/definitions/created_at"
    },
    "updated_at": {
      "$ref": "#/definitions/updated_at"
    }
  },
  "additionalProperties": false,
  "required": [
    "assignee",
    "closed_at",
    "comments",
    "comments_url",
    "events_url",
    "html_url",
    "id",
    "node_id",
    "labels",
    "labels_url",
    "milestone",
    "number",
    "repository_url",
    "state",
    "locked",
    "title",
    "url",
    "user",
    "repository",
    "author_association",
    "created_at",
    "updated_at"
  ]
}
