{
  "$schema": "http://json-schema.org/draft-04/schema#",
  "id": "https://schema.github.com/v3/key-detail.json",
  "title": "Key Detail",
  "type": "object",
  "definitions": {
    "key": {
      "type": "string"
    },
    "id": {
      "type": "integer"
    },
    "created_at": {
      "type": [
        "string",
        "null"
      ],
      "format": "date-time"
    },
    "title": {
      "type": "string"
    },
    "url": {
      "type": "string",
      "format": "uri"
    },
    "verified": {
      "type": "boolean"
    },
    "read_only": {
      "type": "boolean"
    },
    "last_used": {
      "type": [
        "string",
        "null"
      ],
      "format": "date-time"
    },
    "repository_id": {
      "type": [
        "number",
        "null"
      ]
    },
    "user_id": {
      "type": [
        "number",
        "null"
      ]
    }
  },
  "properties": {
    "key": {
      "$ref": "#/definitions/key"
    },
    "id": {
      "$ref": "#/definitions/id"
    },
    "created_at": {
      "$ref": "#/definitions/created_at"
    },
    "title": {
      "$ref": "#/definitions/title"
    },
    "url": {
      "$ref": "#/definitions/url"
    },
    "verified": {
      "$ref": "#/definitions/verified"
    },
    "read_only": {
      "$ref": "#/definitions/read_only"
    },
    "last_used": {
      "$ref": "#/definitions/last_used"
    },
    "repository_id": {
      "$ref": "#/definitions/repository_id"
    },
    "user_id": {
      "$ref": "#/definitions/user_id"
    }
  },
  "additionalProperties": false,
  "required": [
    "key",
    "id",
    "created_at",
    "title",
    "url",
    "verified",
    "read_only",
    "last_used"
  ]
}
