{
  "$schema": "http://json-schema.org/draft-04/schema#",
  "id": "https://schema.github.com/v3/notification-repository.json",
  "title": "Notification Repository",
  "type": "object",
  "definitions": {
    "unread_count": {
      "type": "integer"
    }
  },
  "properties": {
    "repository": {
      "$ref": "https://schema.github.com/v3/minimal-repository.json#"
    },
    "unread_count": {
      "$ref": "#/definitions/unread_count"
    }
  },
  "additionalProperties": false,
  "required": [
    "repository",
    "unread_count"
  ]
}
