{
  "$schema": "http://json-schema.org/draft-04/schema#",
  "id": "https://schema.github.com/v3/organization-full.json",
  "title": "Organization Full",
  "type": "object",
  "definitions": {
    "login": {
      "type": "string",
      "example": "github"
    },
    "url": {
      "type": "string",
      "format": "uri",
      "example": "https://api.github.com/orgs/github"
    },
    "id": {
      "type": "integer",
      "example": 1
    },
    "node_id": {
      "type": "string",
      "example": "MDEyOk9yZ2FuaXphdGlvbjE="
    },
    "repos_url": {
      "type": "string",
      "format": "uri",
      "example": "https://api.github.com/orgs/github/repos"
    },
    "events_url": {
      "type": "string",
      "format": "uri",
      "example": "https://api.github.com/orgs/github/events"
    },
    "hooks_url": {
      "type": "string",
      "example": "https://api.github.com/orgs/github/hooks"
    },
    "issues_url": {
      "type": "string",
      "example": "https://api.github.com/orgs/github/issues"
    },
    "members_url": {
      "type": "string",
      "example": "https://api.github.com/orgs/github/members{/member}"
    },
    "public_members_url": {
      "type": "string",
      "example": "https://api.github.com/orgs/github/public_members{/member}"
    },
    "avatar_url": {
      "type": "string",
      "example": "https://github.com/images/error/octocat_happy.gif"
    },
    "description": {
      "type": [
        "string",
        "null"
      ],
      "example": "A great organization"
    },
    "blog": {
      "type": "string",
      "format": "uri",
      "example": "https://github.com/blog"
    },
    "twitter_username": {
      "type": [
        "string",
        "null"
      ],
      "example": "github"
    },
    "html_url": {
      "type": "string",
      "format": "uri",
      "example": "https://github.com/octocat"
    },
    "name": {
      "type": "string",
      "example": "github"
    },
    "company": {
      "type": "string",
      "example": "GitHub"
    },
    "location": {
      "type": "string",
      "example": "San Francisco"
    },
    "email": {
      "type": "string",
      "format": "email",
      "example": "octocat@github.com"
    },
    "has_organization_projects": {
      "type": "boolean",
      "example": true
    },
    "has_repository_projects": {
      "type": "boolean",
      "example": true
    },
    "is_verified": {
      "type": "boolean",
      "example": true
    },
    "public_repos": {
      "type": "integer",
      "example": 2
    },
    "public_gists": {
      "type": "integer",
      "example": 1
    },
    "followers": {
      "type": "integer",
      "example": 20
    },
    "following": {
      "type": "integer",
      "example": 0
    },
    "type": {
      "type": "string",
      "example": "Organization"
    },
    "created_at": {
      "type": "string",
      "format": "date-time",
      "example": "2008-01-14T04:33:35Z"
    },
    "updated_at": {
      "type": "string",
      "format": "date-time"
    },
    "total_private_repos": {
      "type": "integer",
      "example": 100
    },
    "owned_private_repos": {
      "type": "integer",
      "example": 100
    },
    "private_gists": {
      "type": [
        "number",
        "null"
      ],
      "example": 81
    },
    "disk_usage": {
      "type": [
        "number",
        "null"
      ],
      "example": 10000
    },
    "collaborators": {
      "type": [
        "number",
        "null"
      ],
      "example": 8
    },
    "billing_email": {
      "type": [
        "string",
        "null"
      ],
      "format": "email",
      "example": "org@example.com"
    },
    "default_repository_permission": {
      "type": [
        "string",
        "null"
      ]
    },
    "members_can_create_repositories": {
      "type": [
        "boolean",
        "null"
      ],
      "example": true
    },
    "two_factor_requirement_enabled": {
      "type": [
        "boolean",
        "null"
      ],
      "example": true
    },
    "members_allowed_repository_creation_type": {
      "type": "string",
      "example": "all"
    },
    "members_can_create_public_repositories": {
      "type": "boolean",
      "example": true
    },
    "members_can_create_private_repositories": {
      "type": "boolean",
      "example": true
    },
    "members_can_create_internal_repositories": {
      "type": "boolean",
      "example": true
    }
  },
  "properties": {
    "login": {
      "$ref": "#/definitions/login"
    },
    "url": {
      "$ref": "#/definitions/url"
    },
    "id": {
      "$ref": "#/definitions/id"
    },
    "node_id": {
      "$ref": "#/definitions/node_id"
    },
    "repos_url": {
      "$ref": "#/definitions/repos_url"
    },
    "events_url": {
      "$ref": "#/definitions/events_url"
    },
    "hooks_url": {
      "$ref": "#/definitions/hooks_url"
    },
    "issues_url": {
      "$ref": "#/definitions/issues_url"
    },
    "members_url": {
      "$ref": "#/definitions/members_url"
    },
    "public_members_url": {
      "$ref": "#/definitions/public_members_url"
    },
    "avatar_url": {
      "$ref": "#/definitions/avatar_url"
    },
    "description": {
      "$ref": "#/definitions/description"
    },
    "blog": {
      "$ref": "#/definitions/blog"
    },
    "twitter_username": {
      "$ref": "#/definitions/twitter_username"
    },
    "html_url": {
      "$ref": "#/definitions/html_url"
    },
    "name": {
      "$ref": "#/definitions/name"
    },
    "company": {
      "$ref": "#/definitions/company"
    },
    "location": {
      "$ref": "#/definitions/location"
    },
    "email": {
      "$ref": "#/definitions/email"
    },
    "has_organization_projects": {
      "$ref": "#/definitions/has_organization_projects"
    },
    "has_repository_projects": {
      "$ref": "#/definitions/has_repository_projects"
    },
    "is_verified": {
      "$ref": "#/definitions/is_verified"
    },
    "public_repos": {
      "$ref": "#/definitions/public_repos"
    },
    "public_gists": {
      "$ref": "#/definitions/public_gists"
    },
    "followers": {
      "$ref": "#/definitions/followers"
    },
    "following": {
      "$ref": "#/definitions/following"
    },
    "type": {
      "$ref": "#/definitions/type"
    },
    "created_at": {
      "$ref": "#/definitions/created_at"
    },
    "updated_at": {
      "$ref": "#/definitions/updated_at"
    },
    "total_private_repos": {
      "$ref": "#/definitions/total_private_repos"
    },
    "owned_private_repos": {
      "$ref": "#/definitions/owned_private_repos"
    },
    "private_gists": {
      "$ref": "#/definitions/private_gists"
    },
    "disk_usage": {
      "$ref": "#/definitions/disk_usage"
    },
    "collaborators": {
      "$ref": "#/definitions/collaborators"
    },
    "billing_email": {
      "$ref": "#/definitions/billing_email"
    },
    "plan": {
      "type": "object",
      "properties": {
        "name": {
          "type": "string"
        },
        "space": {
          "type": "number"
        },
        "private_repos": {
          "type": "number"
        },
        "filled_seats": {
          "type": "number"
        },
        "seats": {
          "type": "number"
        }
      },
      "additionalProperties": false,
      "required": [
        "name",
        "space",
        "private_repos"
      ]
    },
    "default_repository_permission": {
      "$ref": "#/definitions/default_repository_permission"
    },
    "members_can_create_repositories": {
      "$ref": "#/definitions/members_can_create_repositories"
    },
    "two_factor_requirement_enabled": {
      "$ref": "#/definitions/two_factor_requirement_enabled"
    },
    "members_allowed_repository_creation_type": {
      "$ref": "#/definitions/members_allowed_repository_creation_type"
    },
    "members_can_create_public_repositories": {
      "$ref": "#/definitions/members_can_create_public_repositories"
    },
    "members_can_create_private_repositories": {
      "$ref": "#/definitions/members_can_create_private_repositories"
    },
    "members_can_create_internal_repositories": {
      "$ref": "#/definitions/members_can_create_internal_repositories"
    }
  },
  "additionalProperties": false,
  "required": [
    "login",
    "url",
    "id",
    "node_id",
    "repos_url",
    "events_url",
    "hooks_url",
    "issues_url",
    "members_url",
    "public_members_url",
    "avatar_url",
    "description",
    "html_url",
    "has_organization_projects",
    "has_repository_projects",
    "public_repos",
    "public_gists",
    "followers",
    "following",
    "type",
    "created_at",
    "updated_at",
    "total_private_repos",
    "owned_private_repos",
    "private_gists",
    "disk_usage",
    "collaborators",
    "billing_email",
    "plan"
  ]
}
