{
  "$schema": "http://json-schema.org/draft-04/schema#",
  "id": "https://schema.github.com/v3/page-build.json",
  "title": "Page Build",
  "type": "object",
  "definitions": {
    "error": {
      "type": "object",
      "properties": {
        "message": {
          "type": [
            "string",
            "null"
          ]
        }
      },
      "additionalProperties": false,
      "required": [
        "message"
      ]
    },
    "url": {
      "type": "string",
      "format": "uri"
    },
    "status": {
      "type": "string"
    },
    "commit": {
      "type": "string"
    },
    "duration": {
      "type": "integer"
    },
    "created_at": {
      "type": "string",
      "format": "date-time"
    },
    "updated_at": {
      "type": "string",
      "format": "date-time"
    }
  },
  "properties": {
    "url": {
      "$ref": "#/definitions/url"
    },
    "status": {
      "$ref": "#/definitions/status"
    },
    "error": {
      "$ref": "#/definitions/error"
    },
    "pusher": {
      "oneOf": [
        {
          "type": "null"
        },
        {
          "$ref": "https://schema.github.com/v3/simple-user.json#"
        }
      ]
    },
    "commit": {
      "$ref": "#/definitions/commit"
    },
    "duration": {
      "$ref": "#/definitions/duration"
    },
    "created_at": {
      "$ref": "#/definitions/created_at"
    },
    "updated_at": {
      "$ref": "#/definitions/updated_at"
    }
  },
  "additionalProperties": false,
  "required": [
    "url",
    "status",
    "error",
    "pusher",
    "commit",
    "duration",
    "created_at",
    "updated_at"
  ]
}
