{
  "$schema": "http://json-schema.org/draft-04/schema#",
  "id": "https://schema.github.com/v3/rate-limit.json",
  "title": "Rate Limit",
  "type": "object",
  "definitions": {
    "limit": {
      "type": "integer"
    },
    "remaining": {
      "type": "integer"
    },
    "reset": {
      "type": "integer"
    }
  },
  "properties": {
    "limit": {
      "$ref": "#/definitions/limit"
    },
    "remaining": {
      "$ref": "#/definitions/remaining"
    },
    "reset": {
      "$ref": "#/definitions/reset"
    }
  },
  "additionalProperties": false,
  "required": [
    "limit",
    "remaining",
    "reset"
  ]
}
