{
  "$schema": "http://json-schema.org/draft-04/hyper-schema",
  "id": "https://schema.github.com/v3/repository-subscription.json",
  "title": "Repository Subscription",
  "description": "Subscription status for a repository.",
  "type": "object",
  "definitions": {
    "subscribed": {
      "description": "Determines if notifications should be received from this repository.",
      "type": "boolean",
      "example": true
    },
    "ignored": {
      "description": "Determines if all notifications should be blocked from this repository.",
      "type": "boolean"
    },
    "owner": {
      "description": "The owner of the repository.",
      "type": "string"
    },
    "repo": {
      "description": "The name of the repository.",
      "type": "string"
    },
    "repository_id": {
      "description": "The ID of the repository.",
      "type": "integer",
      "example": 42
    },
    "created_at": {
      "type": "string",
      "format": "date-time",
      "example": "2012-10-06T21:34:12Z"
    },
    "reason": {
      "type": [
        "string",
        "null"
      ]
    },
    "url": {
      "type": "string",
      "format": "uri",
      "example": "https://api.github.com/repos/octocat/example/subscription"
    },
    "repository_url": {
      "type": "string",
      "format": "uri",
      "example": "https://api.github.com/repos/octocat/example"
    }
  },
  "links": [
    {
      "title": "Set a Repository Subscription",
      "method": "PUT",
      "rel": "replace",
      "href": "/repositories/{repository_id}/subscription",
      "schema": {
        "properties": {
          "subscribed": {
            "$ref": "#/definitions/subscribed"
          },
          "ignored": {
            "$ref": "#/definitions/ignored"
          }
        },
        "type": [
          "object",
          "null"
        ],
        "additionalProperties": false
      }
    },
    {
      "title": "Delete a Repository Subscription",
      "method": "DELETE",
      "rel": "delete",
      "href": "/repositories/{repository_id}/subscription",
      "schema": {
        "additionalProperties": false,
        "type": [
          "object",
          "null"
        ]
      }
    }
  ],
  "properties": {
    "created_at": {
      "$ref": "#/definitions/created_at"
    },
    "ignored": {
      "$ref": "#/definitions/ignored"
    },
    "reason": {
      "$ref": "#/definitions/reason"
    },
    "subscribed": {
      "$ref": "#/definitions/subscribed"
    },
    "url": {
      "$ref": "#/definitions/url"
    },
    "repository_url": {
      "$ref": "#/definitions/repository_url"
    }
  },
  "additionalProperties": false,
  "required": [
    "created_at",
    "ignored",
    "reason",
    "subscribed",
    "url",
    "repository_url"
  ]
}
