{
  "$schema": "http://json-schema.org/draft-04/schema#",
  "id": "https://schema.github.com/v3/stafftools-role.json",
  "title": "Stafftools Role",
  "type": "object",
  "definitions": {
    "id": {
      "type": "integer"
    },
    "name": {
      "type": "string"
    }
  },
  "properties": {
    "id": {
      "$ref": "#/definitions/id"
    },
    "name": {
      "$ref": "#/definitions/name"
    }
  },
  "additionalProperties": false,
  "required": [
    "id",
    "name"
  ]
}
