<svg width="33" height="26" viewBox="0 0 33 26" fill="none" xmlns="http://www.w3.org/2000/svg">
<path d="M15.2666 24.6115C19.5064 23.8497 23.0081 23.2192 23.0483 23.2106L23.1215 23.1948L19.1187 18.3518C16.9173 15.6881 15.116 13.4985 15.116 13.4858C15.116 13.4619 19.2492 1.88437 19.2724 1.84318C19.2802 1.82941 22.0929 6.76904 26.0907 13.8172C29.8334 20.4158 32.9192 25.8563 32.9479 25.9073L33 26L20.279 25.9983L7.55801 25.9967L15.2666 24.6115ZM0 23.1346C0 23.1278 1.88607 19.7974 4.19126 15.7338L8.38251 8.34536L13.2669 4.17584C15.9534 1.88261 18.1586 0.0035212 18.1674 9.41981e-05C18.1763 -0.00333212 18.1409 0.0871426 18.0889 0.20115C18.0369 0.315158 15.6502 5.52244 12.7851 11.7729L7.57592 23.1373L3.78796 23.1422C1.70458 23.1448 0 23.1414 0 23.1346Z" fill="white"/>
</svg>
