<svg height="56" viewBox="0 0 56 56" width="56" xmlns="http://www.w3.org/2000/svg">
  <g fill="none" fill-rule="evenodd" transform="translate(5 5)">
    <path d="M22.476 26.07c-.133-1.44-1.425-2.57-3-2.57-1.574 0-2.865 1.129-3 2.57M19.476 19.5a2 2 0 110 4 2 2 0 010-4zM29.476 26.07c-.133-1.44-1.425-2.57-3-2.57-1.574 0-2.865 1.129-3 2.57" stroke="#2088ff" stroke-linecap="round" stroke-linejoin="round" stroke-width="2"/>
    <path d="M22.976 27.55a1.5 1.5 0 100-3 1.5 1.5 0 000 3z" fill="#2088ff" fill-rule="nonzero"/>
    <path d="M26.476 19.5a2 2 0 110 4 2 2 0 010-4z" stroke="#2088ff" stroke-linecap="round" stroke-linejoin="round" stroke-width="2"/>
    <rect height="14" rx="7" stroke="#2088ff" stroke-width="2" width="22" x="12" y="16"/>
    <path d="M12.994 0H2C.895 0 0 .977 0 2.182v7.636C0 11.023.895 12 2 12h14c1.105 0 2-.977 2-2.182v-.802M28 36.969v-.787c0-1.205.895-2.182 2-2.182h14c1.105 0 2 .977 2 2.182v7.636C46 45.023 45.105 46 44 46H33" stroke="#79b8ff" stroke-linecap="round" stroke-linejoin="round" stroke-width="2"/>
    <path d="M6 5a1 1 0 100-2 1 1 0 000 2zM4.028 8.967a1 1 0 100-2 1 1 0 000 2zM10.052 8a1 1 0 100-2 1 1 0 000 2zM14 10a1 1 0 100-2 1 1 0 000 2z" fill="#79b8ff"/>
    <g stroke-width="2">
      <path d="M38.995 41.987V40M35.995 41.987V41M32.995 41.987V38M41.995 41.987V38" stroke="#79b8ff" stroke-linecap="round"/>
      <path d="M31.018 7.01H41.5" stroke="#79b8ff" stroke-linecap="round" stroke-linejoin="round"/>
      <path d="M33.047 2H40a2 2 0 012 2v29M13.029 44H6a2 2 0 01-2-2V13.053" stroke="#79b8ff" stroke-linecap="round"/>
      <rect height="5" rx="2" stroke="#2088ff" width="12" x="17"/>
      <rect height="5" rx="2" stroke="#2088ff" width="12" x="17" y="41"/>
      <path d="M23 9v3M23 34v3" stroke="#79b8ff" stroke-linecap="round"/>
    </g>
  </g>
</svg>
