<svg height="56" viewBox="0 0 56 56" width="56" xmlns="http://www.w3.org/2000/svg">
  <g fill="none" fill-rule="evenodd" transform="translate(5 5)">
    <path d="M27 38H2c-1.228 0-2-.84-2-2V2C0 .84.772 0 2 0h38c1.228 0 2 .84 2 2v25M0 5h42" stroke="#79b8ff" stroke-linecap="round" stroke-linejoin="round" stroke-width="2"/>
    <path d="M6.548 9.033h10a2 2 0 012 2v6a2 2 0 01-2 2h-10a2 2 0 01-2-2v-6a2 2 0 012-2zM6.548 23.033h10a2 2 0 012 2v6a2 2 0 01-2 2h-10a2 2 0 01-2-2v-6a2 2 0 012-2z" stroke="#79b8ff" stroke-linecap="round" stroke-linejoin="round" stroke-width="2"/>
    <rect height="10" rx="2" stroke="#79b8ff" stroke-linecap="round" stroke-linejoin="round" stroke-width="2" width="14" x="23.548" y="9.033"/>
    <path d="M28.006 33.033h-2.458a2 2 0 01-2-2v-6a2 2 0 012-2h10a2 2 0 012 2v2.015" stroke="#79b8ff" stroke-linecap="round" stroke-linejoin="round" stroke-width="2"/>
    <path d="M26.999 15.994l1.475-1.921 1.674.93 1.87-2.977 1.996 1.047" stroke="#2088ff" stroke-linecap="round" stroke-linejoin="round" stroke-width="2"/>
    <path d="M7.924 15a1 1 0 100-2 1 1 0 000 2zM11.924 17a1 1 0 100-2 1 1 0 000 2zM14.924 13a1 1 0 100-2 1 1 0 000 2z" fill="#2088ff"/>
    <g stroke-linecap="round" stroke-width="2" stroke="#2088ff">
      <path d="M8.543 30.02v-1.987M11.543 30.02v-3.987M14.543 30.02v-.987M27.543 30.02v-3.987M30.543 30.02v-.987M33.543 28.02v-1.987"/>
      <path d="M39 31a8 8 0 110 16 8 8 0 010-16z" stroke-linejoin="round"/>
      <path d="M38.95 34.987v4h3" stroke-linejoin="round"/>
    </g>
  </g>
</svg>
